{
  "code": "0",
  "total": 0,
  "message": "交易成功",
  "level": null,
  "data": {
    "bblujing": "",
    "chaxfanw": "",
    "kehuhaoo": "",
    "kehuzhmc": "",
    "list": null,
    "lstacctinfo": null,
    "zongbshu": 0
  },
  "i18nData": null,
  "extData": null,
  "erorcd": "0000",
  "erortx": "交易成功"
}