{
  "code": "0",
  "total": 0,
  "message": "交易成功",
  "level": null,
  "data": {
    "list": [
      {
        "bill_no": null,
        "loan_amount": null,
        "loan_balance": null
      }
    ]
  },
  "i18nData": null,
  "extData": null,
  "erorcd": "0000",
  "erortx": "交易成功"
}