{
  "code": "0",
  "total": 0,
  "message": "交易成功",
  "level": null,
  "data": {
    "bginnm": "0",
    "qurynm": "0",
    "totlnm": "0",
    "listnm": 0,
    "LIST_ARRAY_INFO": null
  },
  "i18nData": null,
  "extData": null,
  "erorcd": "0000",
  ,
  "erortx": "交易成功"
}