{
  "brchno": "1",
  "data": {
    "indgtSerno": "1",
    "itemValue": "1"
  },
  "datasq": "1",
  "ipaddr": "1",
  "mac": "1",
  "servdt": "1",
  "servsq": "1",
  "servti": "1",
  "servtp": "1",
  "userid": "1",
  "waibclma": "1"
}