module gofly

go 1.19

require (
	github.com/dgrijalva/jwt-go v3.2.0+incompatible
	github.com/didip/tollbooth v4.0.2+incompatible
	github.com/disintegration/imaging v1.6.2
	github.com/fsnotify/fsnotify v1.5.4
	github.com/gin-contrib/cors v1.4.0
	github.com/gin-gonic/gin v1.8.1
	github.com/go-redis/redis/v8 v8.11.5
	github.com/go-sql-driver/mysql v1.7.0
	github.com/gohouse/golib v0.0.0-20200227070740-c868bc352ec6
	github.com/gohouse/t v0.0.0-20201007094014-630049a6bfe9
	github.com/json-iterator/go v1.1.12
	github.com/mattn/go-sqlite3 v1.14.19
	github.com/patrickmn/go-cache v2.1.0+incompatible
	github.com/pkg/errors v0.9.1
	github.com/spf13/viper v1.13.0
	github.com/u2takey/ffmpeg-go v0.4.1
	go.uber.org/zap v1.17.0
	gopkg.in/gomail.v2 v2.0.0-20160411212932-81ebce5c23df
	gopkg.in/natefinch/lumberjack.v2 v2.0.0
)

require (
	github.com/aws/aws-sdk-go v1.38.20 // indirect
	github.com/cespare/xxhash/v2 v2.1.2 // indirect
	github.com/dgryski/go-rendezvous v0.0.0-20200823014737-9f7001d12a5f // indirect
	github.com/gin-contrib/sse v0.1.0 // indirect
	github.com/go-playground/locales v0.14.0 // indirect
	github.com/go-playground/universal-translator v0.18.0 // indirect
	github.com/go-playground/validator/v10 v10.10.0 // indirect
	github.com/goccy/go-json v0.9.7 // indirect
	github.com/hashicorp/hcl v1.0.0 // indirect
	github.com/jmespath/go-jmespath v0.4.0 // indirect
	github.com/leodido/go-urn v1.2.1 // indirect
	github.com/magiconair/properties v1.8.6 // indirect
	github.com/mattn/go-isatty v0.0.14 // indirect
	github.com/mitchellh/mapstructure v1.5.0 // indirect
	github.com/modern-go/concurrent v0.0.0-20180306012644-bacd9c7ef1dd // indirect
	github.com/modern-go/reflect2 v1.0.2 // indirect
	github.com/pelletier/go-toml v1.9.5 // indirect
	github.com/pelletier/go-toml/v2 v2.0.5 // indirect
	github.com/spf13/afero v1.8.2 // indirect
	github.com/spf13/cast v1.5.0 // indirect
	github.com/spf13/jwalterweatherman v1.1.0 // indirect
	github.com/spf13/pflag v1.0.5 // indirect
	github.com/subosito/gotenv v1.4.1 // indirect
	github.com/u2takey/go-utils v0.3.1 // indirect
	github.com/ugorji/go/codec v1.2.7 // indirect
	go.uber.org/atomic v1.7.0 // indirect
	go.uber.org/multierr v1.6.0 // indirect
	golang.org/x/crypto v0.0.0-20220411220226-7b82a4e95df4 // indirect
	golang.org/x/image v0.0.0-20191009234506-e7c1f5e7dbb8 // indirect
	golang.org/x/net v0.0.0-20220520000938-2e3eb7b945c2 // indirect
	golang.org/x/sys v0.0.0-20220520151302-bc2c85ada10a // indirect
	golang.org/x/text v0.3.7 // indirect
	golang.org/x/time v0.0.0-20191024005414-555d28b269f0 // indirect
	google.golang.org/protobuf v1.28.0 // indirect
	gopkg.in/alexcesaro/quotedprintable.v3 v3.0.0-20150716171945-2caba252f4dc // indirect
	gopkg.in/ini.v1 v1.67.0 // indirect
	gopkg.in/yaml.v2 v2.4.0 // indirect
	gopkg.in/yaml.v3 v3.0.1 // indirect
)
