{
	"brchno": "1",
	"data": {
		"cert_code": "530121198502181698",
		"query_type": "",
		"survey_serno": ""
	},
	"datasq": "012sdfsdfdfDFDysdsdRDFD920281",
	"ipaddr": "1",
	"mac": "1",
	"servdt": "1",
	"servsq": "1",
	"servti": "1",
	"servtp": "1",
	"userid": "1",
	"waibclma": "1"
}
