{

  "servtp": "1",
  "userid": "1",
  "brchno": "1",
  "datasq": "SQTA13",
  "servsq": "1",
  "servdt": "1",
  "servti": "1",
  "ipaddr": "1",
  "mac": "1",
  "waibclma": "1",
  "djiebhao": "1",
  "data":{
    "surveySerno":"LS2021051300000032"

  }
}
