{
  "code": "0",
  "total": 0,
  "message": "交易成功",
  "level": null,
  "data": {
    "data": {
      "CODE": "200",
      "ENT_INFO": {
        "ALTER": [
          {
            "ALTAF": "3580.600000",
            "ALTBE": "2730.600000",
            "ALTDATE": "2016-05-27",
            "ALTITEM": "注册资本变更(注册资金、资金数额等变更)",
            "baseId": "320000\u0001320500000000002390492\u00011949100100000018686500",
            "id": "ba965de35e074d6db917fc7da3db45e0"
          },
          {
            "ALTAF": "张家港AAA精密制造股份有限公司",
            "ALTBE": "张家港市AAA轴承有限公司",
            "ALTDATE": "2016-05-12",
            "ALTITEM": "名称变更(字号名称、集团名称等)",
            "baseId": "320000\u0001320500000000002390492\u00011949100100000018686500",
            "id": "c67e60b1e1604e75ba5c3aa7cc405be4"
          },
          {
            "ALTAF": "股份有限公司(非上市、自然人投资或控股)",
            "ALTBE": "有限责任公司(自然人投资或控股)",
            "ALTDATE": "2016-05-12",
            "ALTITEM": "市场主体类型变更",
            "baseId": "320000\u0001320500000000002390492\u00011949100100000018686500",
            "id": "df88a2c81cb146c3843722f8ee9324d3"
          },
          {
            "ALTAF": "沈正贤,陈卫,吉富兵,李有春,沈恩琰,沈作义,周德成,韩国平,曹国元,郭清,陆文华,曹明献,沈建兴,陈志雷,孙华,唐建新,钱益来,钱纯,汪嵘,刘叶芳,朱瑞华,顾金强,华清,顾新忠,周良良,余胜华,朱斌,徐鹏飞,陆玉兴,蒋华,张松兵,庞良,何鹏程,张志清,孙敏德,孙建勇,练建明,陈国民,惠建红,史卫芬,郑皆旺,周红杨,张一虎",
            "ALTBE": "张家港市AAA轴承有限公司工会   ,沈正贤,陈卫,曹明献,周德成,韩国平,郭清,沈作义,曹国元,沈建兴,陈志雷,唐新建,陆文华,孙华,沈恩琰,吉富兵,李有春",
            "ALTDATE": "2015-10-29",
            "ALTITEM": "投资人变更(包括出资额、出资方式、出资日期、投资人名称等)",
            "baseId": "320000\u0001320500000000002390492\u00011949100100000018686500",
            "id": "8b2f3606f35c4ccd8420d972dea27d06"
          },
          {
            "ALTAF": "张家港市AAA轴承有限公司工会   ,沈正贤,陈卫,曹明献,周德成,韩国平,郭清,沈作义,曹国元,沈建兴,陈志雷,唐新建,陆文华,孙华,沈恩琰,吉富兵,李有春",
            "ALTBE": "张家港市AAA轴承有限公司工会   ,沈正贤,陈卫,曹明献,韩天宝,周德成,韩国平,郭清,沈作义,曹国元,周建华,沈建兴,陈志雷,唐新建,陆文华,孙华,沈恩琰,吉富兵,李有春",
            "ALTDATE": "2015-08-28",
            "ALTITEM": "投资人变更(包括出资额、出资方式、出资日期、投资人名称等)",
            "baseId": "320000\u0001320500000000002390492\u00011949100100000018686500",
            "id": "8adb61dd912f41d6a08c4655d5c04dd1"
          },
          {
            "ALTAF": "张家港市AAA轴承有限公司工会   ,沈正贤,陈卫,曹明献,韩天宝,周德成,韩国平,郭清,沈作义,曹国元,周建华,沈建兴,陈志雷,唐新建,陆文华,孙华,沈恩琰,李有春,吉富兵",
            "ALTBE": "张家港市AAA轴承有限公司工会   ,沈正贤,陈卫,苏勤,曹明献,韩天宝,周德成,曹亚兴,韩国平,郭清,沈作义,张一虎,曹国元 ,周建华   ,沈建兴,陆英,俞福刚,陶公为,张明富,陈志雷   ,徐春芳,唐新建,陆文华  ,孙华,沈恩琰,吉富兵,李有春",
            "ALTDATE": "2014-12-09",
            "ALTITEM": "投资人变更(包括出资额、出资方式、出资日期、投资人名称等)",
            "baseId": "320000\u0001320500000000002390492\u00011949100100000018686500",
            "id": "8997dcdbc5714796a00059d8e511b1e7"
          }
        ],
        "BASIC": {
          "ABUITEM": "轴承、纺织锭子、机械制造、加工、销售，自营和代理各类商品及技术的进出口业务。（依法须经批准的项目，经相关部门批准后方可开展经营活动）",
          "ANCHEYEAR": "2019",
          "APPRDATE": "2020-03-26",
          "CANDATE": "",
          "CREDITCODE": "913205821421747780",
          "DOM": "金港镇后塍澄杨路5号",
          "EMAIL": "",
          "ENTITYTYPE": "1",
          "ENTNAME": "张家港AAA精密制造股份有限公司",
          "ENTNAME_OLD": "张家港市AAA轴承有限公司",
          "ENTSTATUS": "在营（开业）",
          "ENTSTATUSCODE": "1",
          "ENTTYPE": "股份有限公司(非上市、自然人投资或控股)",
          "ENTTYPECODE": "1222",
          "ESDATE": "1993-02-02",
          "FRNAME": "沈正贤",
          "ID": "320000\u0001320500000000002390492\u00011949100100000018686500",
          "INDUSTRYPHYNAME": "制造业",
          "OPFROM": "1993-02-02",
          "OPTO": "长期",
          "ORGCODES": "142174778",
          "POSTALCODE": "215631",
          "REGCAP": "3580.600000",
          "REGCAPCUR": "人民币元",
          "REGCAPCURCODE": "156",
          "REGCITY": "320500",
          "REGNO": "320582000086547",
          "REGORG": "江苏省市场监督管理局",
          "REGORGCITY": "江苏省苏州市",
          "REGORGCODE": "320000",
          "REGORGDISTRICT": "江苏省苏州市张家港市",
          "REGORGPROVINCE": "江苏省",
          "REVDATE": "",
          "S_EXT_NODENUM": "320000",
          "ZSOPSCOPE": "轴承、纺织锭子、机械制造、加工、销售，自营和代理各类商品及技术的进出口业务。（依法须经批准的项目，经相关部门批准后方可开展经营活动）"
        },
        "BASICLIST": null,
        "BREAKLAW": null,
        "ENTCASEBASEINFO": null,
        "ENTINV": [
          {
            "BINVVAMOUNT": "10",
            "CANDATE": "",
            "CONFORM": "",
            "CONGROCUR": "人民币元",
            "CREDITCODE": "913205827933456494",
            "ENTJGNAME": "张家港市三欧重型机械有限公司",
            "ENTSTATUS": "在营（开业）",
            "ENTTYPE": "有限责任公司(自然人投资或控股)",
            "ESDATE": "2006-09-22",
            "FUNDEDRATIO": "22.50%",
            "NAME": "季正环",
            "REGCAP": "500.000000",
            "REGCAPCUR": "人民币元",
            "REGNO": "320582000100062",
            "REGORG": "江苏省张家港保税区市场监管局",
            "REGORGCODE": "320592",
            "REVDATE": "",
            "SUBCONAM": "112.500000"
          },
          {
            "BINVVAMOUNT": "10",
            "CANDATE": "2017-09-19",
            "CONFORM": "其他",
            "CONGROCUR": "人民币元",
            "CREDITCODE": "91220502729570614X",
            "ENTJGNAME": "通化市东昌区兴元机电物资经销处",
            "ENTSTATUS": "注销",
            "ENTTYPE": "集体所有制",
            "ESDATE": "2008-07-10",
            "FUNDEDRATIO": "100.00%",
            "NAME": "刘福春",
            "REGCAP": "5.000000",
            "REGCAPCUR": "人民币元",
            "REGNO": "220502000011780",
            "REGORG": "通化市工商行政管理局东昌分局",
            "REGORGCODE": "220502",
            "REVDATE": "",
            "SUBCONAM": "5.000000"
          },
          {
            "BINVVAMOUNT": "10",
            "CANDATE": "2016-11-17",
            "CONFORM": "",
            "CONGROCUR": "人民币元",
            "CREDITCODE": "913713006781309921",
            "ENTJGNAME": "临沂AAA轴承机械有限公司",
            "ENTSTATUS": "注销",
            "ENTTYPE": "其他有限责任公司",
            "ESDATE": "2008-07-23",
            "FUNDEDRATIO": "50.50%",
            "NAME": "蒋文俊",
            "REGCAP": "300.000000",
            "REGCAPCUR": "人民币元",
            "REGNO": "371331200000485",
            "REGORG": "临沂经济技术开发区市场监督管理局",
            "REGORGCODE": "371331",
            "REVDATE": "",
            "SUBCONAM": "151.500000"
          },
          {
            "BINVVAMOUNT": "10",
            "CANDATE": "",
            "CONFORM": "",
            "CONGROCUR": "美元",
            "CREDITCODE": "91320582776426543L",
            "ENTJGNAME": "张家港斯贝瑞轴承有限公司",
            "ENTSTATUS": "在营（开业）",
            "ENTTYPE": "有限责任公司(中外合资)",
            "ESDATE": "2005-07-14",
            "FUNDEDRATIO": "35.00%",
            "NAME": "斯维达克·亚历山大·伊果列维奇",
            "REGCAP": "350.000000",
            "REGCAPCUR": "美元",
            "REGNO": "320582400007601",
            "REGORG": "江苏省张家港保税区市场监管局",
            "REGORGCODE": "320592",
            "REVDATE": "",
            "SUBCONAM": "122.500000"
          },
          {
            "BINVVAMOUNT": "10",
            "CANDATE": "1994-04-05",
            "CONFORM": "",
            "CONGROCUR": "",
            "CREDITCODE": "",
            "ENTJGNAME": "张家港市轴承公司",
            "ENTSTATUS": "注销",
            "ENTTYPE": "集体所有制",
            "ESDATE": "1993-04-14",
            "FUNDEDRATIO": "100.00%",
            "NAME": "王龙兴",
            "REGCAP": "50.000000",
            "REGCAPCUR": "",
            "REGNO": "14218244-4",
            "REGORG": "张家港市市场监督管理局",
            "REGORGCODE": "320582",
            "REVDATE": "",
            "SUBCONAM": "50.000000"
          },
          {
            "BINVVAMOUNT": "10",
            "CANDATE": "",
            "CONFORM": "",
            "CONGROCUR": "人民币元",
            "CREDITCODE": "",
            "ENTJGNAME": "南京长江华信轴承有限公司",
            "ENTSTATUS": "吊销，未注销",
            "ENTTYPE": "有限责任公司",
            "ESDATE": "1996-01-18",
            "FUNDEDRATIO": "10.83%",
            "NAME": "郭成砖",
            "REGCAP": "120.000000",
            "REGCAPCUR": "人民币元",
            "REGNO": "3201091000088",
            "REGORG": "南京经济技术开发区市场监督管理局",
            "REGORGCODE": "320192",
            "REVDATE": "2004-01-15",
            "SUBCONAM": "13.000000"
          },
          {
            "BINVVAMOUNT": "10",
            "CANDATE": "",
            "CONFORM": "",
            "CONGROCUR": "",
            "CREDITCODE": "91320592MA20BTTT14",
            "ENTJGNAME": "张家港联亚轴承制造有限公司",
            "ENTSTATUS": "在营（开业）",
            "ENTTYPE": "有限责任公司(中外合资)",
            "ESDATE": "2019-11-04",
            "FUNDEDRATIO": "51.00%",
            "NAME": "沈正贤",
            "REGCAP": "600.000000",
            "REGCAPCUR": "人民币元",
            "REGNO": "320592400005772",
            "REGORG": "江苏省张家港保税区市场监管局",
            "REGORGCODE": "320592",
            "REVDATE": "",
            "SUBCONAM": "306.000000"
          },
          {
            "BINVVAMOUNT": "10",
            "CANDATE": "",
            "CONFORM": "",
            "CONGROCUR": "人民币元",
            "CREDITCODE": "91320582711577615J",
            "ENTJGNAME": "张家港市格致电器制造有限公司",
            "ENTSTATUS": "在营（开业）",
            "ENTTYPE": "有限责任公司",
            "ESDATE": "1998-11-26",
            "FUNDEDRATIO": "53.57%",
            "NAME": "王志新",
            "REGCAP": "280.000000",
            "REGCAPCUR": "人民币元",
            "REGNO": "320582000005767",
            "REGORG": "江苏省张家港保税区市场监管局",
            "REGORGCODE": "320592",
            "REVDATE": "",
            "SUBCONAM": "150.000000"
          },
          {
            "BINVVAMOUNT": "10",
            "CANDATE": "2014-03-17",
            "CONFORM": "货币",
            "CONGROCUR": "人民币元",
            "CREDITCODE": "",
            "ENTJGNAME": "张家港保税区三欧商贸有限公司",
            "ENTSTATUS": "注销",
            "ENTTYPE": "有限责任公司",
            "ESDATE": "2001-11-13",
            "FUNDEDRATIO": "90.00%",
            "NAME": "沈正贤",
            "REGCAP": "100.000000",
            "REGCAPCUR": "人民币元",
            "REGNO": "320592000000622",
            "REGORG": "江苏省张家港保税区市场监管局",
            "REGORGCODE": "320592",
            "REVDATE": "",
            "SUBCONAM": "90.000000"
          },
          {
            "BINVVAMOUNT": "10",
            "CANDATE": "",
            "CONFORM": "",
            "CONGROCUR": "人民币元",
            "CREDITCODE": "",
            "ENTJGNAME": "张家港市升达化纤材料有限公司",
            "ENTSTATUS": "吊销，未注销",
            "ENTTYPE": "有限责任公司",
            "ESDATE": "1998-08-12",
            "FUNDEDRATIO": "70.00%",
            "NAME": "杨洪高",
            "REGCAP": "50.000000",
            "REGCAPCUR": "人民币元",
            "REGNO": "3205821102590",
            "REGORG": "张家港市行政审批局",
            "REGORGCODE": "320582",
            "REVDATE": "2000-08-22",
            "SUBCONAM": "35.000000"
          }
        ],
        "EXCEPTIONLIST": null,
        "FILIATION": null,
        "FINALCASE": null,
        "FRINV": null,
        "FRPOSITION": null,
        "INSPECT": null,
        "JUDICIALAID": null,
        "JUDICIALAIDALTER": null,
        "JUDICIALAIDDETAIL": null,
        "LIQUIDATION": null,
        "LISTEDCOMPINFO": null,
        "LISTEDINFO": null,
        "LISTEDMANAGER": null,
        "LISTEDSHAREHOLDER": null,
        "MORTGAGEALT": null,
        "MORTGAGEBASIC": null,
        "MORTGAGECAN": null,
        "MORTGAGEDEBT": null,
        "MORTGAGEPAWN": null,
        "MORTGAGEPER": null,
        "MORTGAGEREG": null,
        "PERSON": [
          {
            "ENTNAME": "张家港AAA精密制造股份有限公司",
            "PERNAME": "沈正贤",
            "PERSONAMOUNT": "8",
            "POSITION": "董事长",
            "POSITIONCODE": "431A"
          },
          {
            "ENTNAME": "张家港AAA精密制造股份有限公司",
            "PERNAME": "李有春",
            "PERSONAMOUNT": "8",
            "POSITION": "董事兼总经理",
            "POSITIONCODE": "410B"
          },
          {
            "ENTNAME": "张家港AAA精密制造股份有限公司",
            "PERNAME": "陈卫",
            "PERSONAMOUNT": "8",
            "POSITION": "董事",
            "POSITIONCODE": "432A"
          },
          {
            "ENTNAME": "张家港AAA精密制造股份有限公司",
            "PERNAME": "庞良",
            "PERSONAMOUNT": "8",
            "POSITION": "董事",
            "POSITIONCODE": "432A"
          },
          {
            "ENTNAME": "张家港AAA精密制造股份有限公司",
            "PERNAME": "沈恩琰",
            "PERSONAMOUNT": "8",
            "POSITION": "董事",
            "POSITIONCODE": "432A"
          },
          {
            "ENTNAME": "张家港AAA精密制造股份有限公司",
            "PERNAME": "曹正",
            "PERSONAMOUNT": "8",
            "POSITION": "监事",
            "POSITIONCODE": "408A"
          },
          {
            "ENTNAME": "张家港AAA精密制造股份有限公司",
            "PERNAME": "汪嵘",
            "PERSONAMOUNT": "8",
            "POSITION": "监事",
            "POSITIONCODE": "408A"
          },
          {
            "ENTNAME": "张家港AAA精密制造股份有限公司",
            "PERNAME": "顾新忠",
            "PERSONAMOUNT": "8",
            "POSITION": "监事",
            "POSITIONCODE": "408A"
          }
        ],
        "PUNISHBREAK": [],
        "PUNISHED": [],
        "QUICKCANCELBASIC": null,
        "QUICKCANCELDISSENT": null,
        "RELATEDPUNISHBREAK": [
          {
            "AGECLEAN": "",
            "AREANAMECLEAN": "江苏",
            "BUSINESSENTITY": "亚维达克亚历山大伊果列维奇",
            "CARDNUM": "776426543",
            "CASECODE": "(2017)苏0281执2287号",
            "COURTNAME": "江阴市人民法院",
            "DISRUPTTYPENAME": "违反财产报告制度的",
            "DUTY": "被告支付原告人民币27050.85元",
            "GISTID": "(2017)苏0281民初569号民事判决书",
            "GISTUNIT": "江阴市人民法院",
            "INAMECLEAN": "张家港斯贝瑞轴承有限公司",
            "PERFORMANCE": "全部未履行",
            "PERFORMEDPART": "",
            "PUBLISHDATECLEAN": "2017-05-19",
            "REGDATECLEAN": "2017-03-23",
            "SEXYCLEAN": "",
            "TYPE": "法人或其他组织",
            "UNPERFORMPART": "",
            "YSFZD": ""
          },
          {
            "AGECLEAN": "",
            "AREANAMECLEAN": "江苏",
            "BUSINESSENTITY": "斯维达克.亚历山大,伊果列维奇",
            "CARDNUM": "77642654-3",
            "CASECODE": "(2017)苏0206执20号",
            "COURTNAME": "无锡市惠山区人民法院",
            "DISRUPTTYPENAME": "有履行能力而拒不履行生效法律文书确定义务",
            "DUTY": "张家港思贝瑞轴承有限公司于本判决生效后立即支付无锡市通达滚子有限公司货款194234.32元及逾期付款利息（以194234.32元为基数，自2016年5月20日起至实际给付之日，按中国人民银行同期同档贷款利率计算）。如果未按本判决指定的期间履行给付金钱义务，应当依照《中华人民共和国民事诉讼法》第二百五十三条之规定，加倍支付迟延履行期间的债务利息。案件受理费4190元，减半收取2095元，由思贝瑞公司负担。本案诉讼费用已由通达公司预交，思贝瑞公司于本判决生效后迳付通达公司。如不服本判决，可在判决书送达之日起十五日内，向本院递交上诉状，并按对方当事人的人数提出副本，上诉于江苏省无锡市中级人民法院，同时根据国务院《诉讼费用交纳办法》的有关规定，向该院预交上诉案件受理费。",
            "GISTID": "(2016)苏0206民初6176号",
            "GISTUNIT": "无锡市惠山区人民法院",
            "INAMECLEAN": "张家港斯贝瑞轴承有限公司",
            "PERFORMANCE": "全部未履行",
            "PERFORMEDPART": "",
            "PUBLISHDATECLEAN": "2017-06-27",
            "REGDATECLEAN": "2017-01-03",
            "SEXYCLEAN": "",
            "TYPE": "法人或其他组织",
            "UNPERFORMPART": "",
            "YSFZD": ""
          },
          {
            "AGECLEAN": "",
            "AREANAMECLEAN": "江苏",
            "BUSINESSENTITY": "斯维达克.亚历山大,伊果列维奇",
            "CARDNUM": "77642654-3",
            "CASECODE": "(2016)苏0582执4904号",
            "COURTNAME": "张家港市人民法院",
            "DISRUPTTYPENAME": "违反财产报告制度,其他有履行能力而拒不履行生效法律文书确定义务",
            "DUTY": "被执行人应给付申请人978769.81元",
            "GISTID": "（2016）苏0582民初6464号",
            "GISTUNIT": "本院",
            "INAMECLEAN": "张家港斯贝瑞轴承有限公司",
            "PERFORMANCE": "全部未履行",
            "PERFORMEDPART": "",
            "PUBLISHDATECLEAN": "2016-10-27",
            "REGDATECLEAN": "2016-10-14",
            "SEXYCLEAN": "",
            "TYPE": "法人或其他组织",
            "UNPERFORMPART": "",
            "YSFZD": ""
          },
          {
            "AGECLEAN": "",
            "AREANAMECLEAN": "江苏",
            "BUSINESSENTITY": "斯维达克·亚历山大·伊果列维奇",
            "CARDNUM": "77642654-3",
            "CASECODE": "(2016)苏0582执3720号",
            "COURTNAME": "张家港市人民法院",
            "DISRUPTTYPENAME": "其他有履行能力而拒不履行生效法律文书确定义务",
            "DUTY": "被执行人给付申请执行人25000元",
            "GISTID": "张劳人仲案字[2016第374号仲裁调解书",
            "GISTUNIT": "张家港市劳动人事争议仲裁委员会",
            "INAMECLEAN": "张家港斯贝瑞轴承有限公司",
            "PERFORMANCE": "全部未履行",
            "PERFORMEDPART": "",
            "PUBLISHDATECLEAN": "2016-11-23",
            "REGDATECLEAN": "2016-08-03",
            "SEXYCLEAN": "",
            "TYPE": "法人或其他组织",
            "UNPERFORMPART": "",
            "YSFZD": ""
          },
          {
            "AGECLEAN": "",
            "AREANAMECLEAN": "江苏",
            "BUSINESSENTITY": "斯维达克·亚历山大·伊果列维奇",
            "CARDNUM": "77642654-3",
            "CASECODE": "(2016)苏0582执3115号",
            "COURTNAME": "张家港市人民法院",
            "DISRUPTTYPENAME": "其他有履行能力而拒不履行生效法律文书确定义务",
            "DUTY": "被执行人给付申请执行人13000元",
            "GISTID": "张劳人仲案前字[2016]第312号仲裁调解书",
            "GISTUNIT": "张家港市劳动人事争议仲裁委员会",
            "INAMECLEAN": "张家港斯贝瑞轴承有限公司",
            "PERFORMANCE": "全部未履行",
            "PERFORMEDPART": "",
            "PUBLISHDATECLEAN": "2016-11-23",
            "REGDATECLEAN": "2016-07-04",
            "SEXYCLEAN": "",
            "TYPE": "法人或其他组织",
            "UNPERFORMPART": "",
            "YSFZD": ""
          },
          {
            "AGECLEAN": "",
            "AREANAMECLEAN": "江苏",
            "BUSINESSENTITY": "斯维达克·亚历山大·伊果列维奇",
            "CARDNUM": "77642654-3",
            "CASECODE": "(2016)苏0582执3114号",
            "COURTNAME": "张家港市人民法院",
            "DISRUPTTYPENAME": "其他有履行能力而拒不履行生效法律文书确定义务",
            "DUTY": "被执行人给付申请执行人13000元",
            "GISTID": "张劳人仲案前字[2016]第313号仲裁调解书",
            "GISTUNIT": "张家港市劳动人事争议仲裁委员会",
            "INAMECLEAN": "张家港斯贝瑞轴承有限公司",
            "PERFORMANCE": "全部未履行",
            "PERFORMEDPART": "",
            "PUBLISHDATECLEAN": "2016-11-23",
            "REGDATECLEAN": "2016-07-04",
            "SEXYCLEAN": "",
            "TYPE": "法人或其他组织",
            "UNPERFORMPART": "",
            "YSFZD": ""
          },
          {
            "AGECLEAN": "",
            "AREANAMECLEAN": "江苏",
            "BUSINESSENTITY": "季正环",
            "CARDNUM": "79334564-9",
            "CASECODE": "(2016)苏0582执2248号",
            "COURTNAME": "张家港市人民法院",
            "DISRUPTTYPENAME": "违反财产报告制度,其他有履行能力而拒不履行生效法律文书确定义务",
            "DUTY": "一、原告张家港保税区广联国际贸易有限公司与被告张家港市三欧重型机械有限公司一致确认被告张家港市三欧重型机械有限公司尚结欠原告货款31585.30元。现原告张家港保税区广联国际贸易有限公司同意被告张家港市三欧重型机械有限公司在2016年4月30日之前一次性支付原告货款31585.30元予以了结，其余诉讼请求原告自愿放弃。\\\\n二、案件受理费收取790元，由被告张家港市三欧重型机械有限公司负担。\\\\n三、如果被告张家港市三欧重型机械有限公司未按期履行本协议，原告有权要求被告归还货款31585.30元，并承担该款自2016年5月1日起至偿还之日止按同期银行贷款基准利率的1.5倍计算利息，并承担本案诉讼费。在扣除签订本协议后被告已履行的部分后，原告可一并向法院申请执行。\\\\n四、双方当事人一致同意本协议自双方在协议上签名或捺印后即生效。\\\\n",
            "GISTID": "（2015）张金商初字第00445号",
            "GISTUNIT": "本院",
            "INAMECLEAN": "张家港市三欧重型机械有限公司",
            "PERFORMANCE": "全部未履行",
            "PERFORMEDPART": "",
            "PUBLISHDATECLEAN": "2016-07-13",
            "REGDATECLEAN": "2016-05-09",
            "SEXYCLEAN": "",
            "TYPE": "法人或其他组织",
            "UNPERFORMPART": "",
            "YSFZD": ""
          }
        ],
        "RELATEDPUNISHED": [],
        "SHAREHOLDER": [
          {
            "CONDATE": "2015-05-28",
            "CONFORM": "",
            "CONFORMCODE": "货币",
            "CREDITCODE": "",
            "CURRENCYCODE": "156",
            "FUNDEDRATIO": "14.25%",
            "INVTYPE": "自然人股东",
            "INVTYPECODE": "20",
            "REGCAPCUR": "人民币元",
            "REGNO": "",
            "SHANAME": "沈正贤",
            "SUBCONAM": "510.100000",
            "baseId": "320000\u0001320500000000002390492\u00011949100100000018686500",
            "id": "f52ec4b2351c4430a09dd24fb67e916d"
          },
          {
            "CONDATE": "1996-05-28",
            "CONFORM": "",
            "CONFORMCODE": "货币",
            "CREDITCODE": "",
            "CURRENCYCODE": "156",
            "FUNDEDRATIO": "10.33%",
            "INVTYPE": "自然人股东",
            "INVTYPECODE": "20",
            "REGCAPCUR": "人民币元",
            "REGNO": "",
            "SHANAME": "李有春",
            "SUBCONAM": "369.700000",
            "baseId": "320000\u0001320500000000002390492\u00011949100100000018686500",
            "id": "e6c8dbc40fc64396b4c9b1abf26b2a0b"
          },
          {
            "CONDATE": "1996-05-28",
            "CONFORM": "",
            "CONFORMCODE": "货币",
            "CREDITCODE": "",
            "CURRENCYCODE": "156",
            "FUNDEDRATIO": "10.33%",
            "INVTYPE": "自然人股东",
            "INVTYPECODE": "20",
            "REGCAPCUR": "人民币元",
            "REGNO": "",
            "SHANAME": "吉富兵",
            "SUBCONAM": "369.700000",
            "baseId": "320000\u0001320500000000002390492\u00011949100100000018686500",
            "id": "56f2904e512141649e60be82a87ed0a3"
          },
          {
            "CONDATE": "1996-05-28",
            "CONFORM": "",
            "CONFORMCODE": "货币",
            "CREDITCODE": "",
            "CURRENCYCODE": "156",
            "FUNDEDRATIO": "10.33%",
            "INVTYPE": "自然人股东",
            "INVTYPECODE": "20",
            "REGCAPCUR": "人民币元",
            "REGNO": "",
            "SHANAME": "陈卫",
            "SUBCONAM": "369.700000",
            "baseId": "320000\u0001320500000000002390492\u00011949100100000018686500",
            "id": "ba9988a8ea9d4e819b5eb7980ba28029"
          },
          {
            "CONDATE": "1996-05-28",
            "CONFORM": "",
            "CONFORMCODE": "货币",
            "CREDITCODE": "",
            "CURRENCYCODE": "156",
            "FUNDEDRATIO": "7.98%",
            "INVTYPE": "自然人股东",
            "INVTYPECODE": "20",
            "REGCAPCUR": "人民币元",
            "REGNO": "",
            "SHANAME": "沈恩琰",
            "SUBCONAM": "285.800000",
            "baseId": "320000\u0001320500000000002390492\u00011949100100000018686500",
            "id": "08b6ebb0687546f8b5bcf32726a8d3eb"
          },
          {
            "CONDATE": "2015-10-28",
            "CONFORM": "",
            "CONFORMCODE": "货币",
            "CREDITCODE": "",
            "CURRENCYCODE": "156",
            "FUNDEDRATIO": "1.13%",
            "INVTYPE": "自然人股东",
            "INVTYPECODE": "20",
            "REGCAPCUR": "人民币元",
            "REGNO": "",
            "SHANAME": "钱益来",
            "SUBCONAM": "40.500000",
            "baseId": "320000\u0001320500000000002390492\u00011949100100000018686500",
            "id": "8f0a0efb50704fc9bad5ccbbc166abdb"
          },
          {
            "CONDATE": "2015-10-28",
            "CONFORM": "",
            "CONFORMCODE": "货币",
            "CREDITCODE": "",
            "CURRENCYCODE": "156",
            "FUNDEDRATIO": "1.13%",
            "INVTYPE": "自然人股东",
            "INVTYPECODE": "20",
            "REGCAPCUR": "人民币元",
            "REGNO": "",
            "SHANAME": "惠建红",
            "SUBCONAM": "40.500000",
            "baseId": "320000\u0001320500000000002390492\u00011949100100000018686500",
            "id": "9e7a23b13de24bbdb8585ea13d34ea67"
          },
          {
            "CONDATE": "1996-05-28",
            "CONFORM": "",
            "CONFORMCODE": "货币",
            "CREDITCODE": "",
            "CURRENCYCODE": "156",
            "FUNDEDRATIO": "1.13%",
            "INVTYPE": "自然人股东",
            "INVTYPECODE": "20",
            "REGCAPCUR": "人民币元",
            "REGNO": "",
            "SHANAME": "沈作义",
            "SUBCONAM": "40.500000",
            "baseId": "320000\u0001320500000000002390492\u00011949100100000018686500",
            "id": "6aae4c05b8684669b2186cc8383afecb"
          },
          {
            "CONDATE": "2015-10-28",
            "CONFORM": "",
            "CONFORMCODE": "货币",
            "CREDITCODE": "",
            "CURRENCYCODE": "156",
            "FUNDEDRATIO": "0.98%",
            "INVTYPE": "自然人股东",
            "INVTYPECODE": "20",
            "REGCAPCUR": "人民币元",
            "REGNO": "",
            "SHANAME": "张一虎",
            "SUBCONAM": "35.000000",
            "baseId": "320000\u0001320500000000002390492\u00011949100100000018686500",
            "id": "50a3a2f812674dfeb17fc0bb831485fd"
          },
          {
            "CONDATE": "1996-05-28",
            "CONFORM": "",
            "CONFORMCODE": "货币",
            "CREDITCODE": "",
            "CURRENCYCODE": "156",
            "FUNDEDRATIO": "0.98%",
            "INVTYPE": "自然人股东",
            "INVTYPECODE": "20",
            "REGCAPCUR": "人民币元",
            "REGNO": "",
            "SHANAME": "陆文华",
            "SUBCONAM": "35.000000",
            "baseId": "320000\u0001320500000000002390492\u00011949100100000018686500",
            "id": "c482ec54ba0847af8af48bb2b1520ecf"
          },
          {
            "CONDATE": "1996-05-28",
            "CONFORM": "",
            "CONFORMCODE": "货币",
            "CREDITCODE": "",
            "CURRENCYCODE": "156",
            "FUNDEDRATIO": "0.98%",
            "INVTYPE": "自然人股东",
            "INVTYPECODE": "20",
            "REGCAPCUR": "人民币元",
            "REGNO": "",
            "SHANAME": "韩国平",
            "SUBCONAM": "35.000000",
            "baseId": "320000\u0001320500000000002390492\u00011949100100000018686500",
            "id": "f11fd4c577694c8caf9a4e8d79fbeb8a"
          },
          {
            "CONDATE": "1996-05-28",
            "CONFORM": "",
            "CONFORMCODE": "货币",
            "CREDITCODE": "",
            "CURRENCYCODE": "156",
            "FUNDEDRATIO": "0.98%",
            "INVTYPE": "自然人股东",
            "INVTYPECODE": "20",
            "REGCAPCUR": "人民币元",
            "REGNO": "",
            "SHANAME": "曹国元",
            "SUBCONAM": "35.000000",
            "baseId": "320000\u0001320500000000002390492\u00011949100100000018686500",
            "id": "012aac82f50c43299fcb4fd9b9eab321"
          },
          {
            "CONDATE": "1996-05-28",
            "CONFORM": "",
            "CONFORMCODE": "货币",
            "CREDITCODE": "",
            "CURRENCYCODE": "156",
            "FUNDEDRATIO": "0.98%",
            "INVTYPE": "自然人股东",
            "INVTYPECODE": "20",
            "REGCAPCUR": "人民币元",
            "REGNO": "",
            "SHANAME": "郭清",
            "SUBCONAM": "35.000000",
            "baseId": "320000\u0001320500000000002390492\u00011949100100000018686500",
            "id": "ae844073594647389c180da12b89ab0a"
          },
          {
            "CONDATE": "2015-10-28",
            "CONFORM": "",
            "CONFORMCODE": "货币",
            "CREDITCODE": "",
            "CURRENCYCODE": "156",
            "FUNDEDRATIO": "0.98%",
            "INVTYPE": "自然人股东",
            "INVTYPECODE": "20",
            "REGCAPCUR": "人民币元",
            "REGNO": "",
            "SHANAME": "孙敏德",
            "SUBCONAM": "35.000000",
            "baseId": "320000\u0001320500000000002390492\u00011949100100000018686500",
            "id": "f574e509afdf405fb09d78c1d0fa4951"
          },
          {
            "CONDATE": "1996-05-28",
            "CONFORM": "",
            "CONFORMCODE": "货币",
            "CREDITCODE": "",
            "CURRENCYCODE": "156",
            "FUNDEDRATIO": "0.98%",
            "INVTYPE": "自然人股东",
            "INVTYPECODE": "20",
            "REGCAPCUR": "人民币元",
            "REGNO": "",
            "SHANAME": "曹明献",
            "SUBCONAM": "35.000000",
            "baseId": "320000\u0001320500000000002390492\u00011949100100000018686500",
            "id": "0e46441342b14072bb4f0ddb663f189c"
          },
          {
            "CONDATE": "1996-05-28",
            "CONFORM": "",
            "CONFORMCODE": "货币",
            "CREDITCODE": "",
            "CURRENCYCODE": "156",
            "FUNDEDRATIO": "0.98%",
            "INVTYPE": "自然人股东",
            "INVTYPECODE": "20",
            "REGCAPCUR": "人民币元",
            "REGNO": "",
            "SHANAME": "沈建兴",
            "SUBCONAM": "35.000000",
            "baseId": "320000\u0001320500000000002390492\u00011949100100000018686500",
            "id": "dde5fcf0b66542c59766a1aa9b87d168"
          },
          {
            "CONDATE": "2015-10-28",
            "CONFORM": "",
            "CONFORMCODE": "货币",
            "CREDITCODE": "",
            "CURRENCYCODE": "156",
            "FUNDEDRATIO": "0.98%",
            "INVTYPE": "自然人股东",
            "INVTYPECODE": "20",
            "REGCAPCUR": "人民币元",
            "REGNO": "",
            "SHANAME": "顾新忠",
            "SUBCONAM": "35.000000",
            "baseId": "320000\u0001320500000000002390492\u00011949100100000018686500",
            "id": "5c98fe07479c4d8daf9729709579f9e0"
          },
          {
            "CONDATE": "1996-05-28",
            "CONFORM": "",
            "CONFORMCODE": "货币",
            "CREDITCODE": "",
            "CURRENCYCODE": "156",
            "FUNDEDRATIO": "0.98%",
            "INVTYPE": "自然人股东",
            "INVTYPECODE": "20",
            "REGCAPCUR": "人民币元",
            "REGNO": "",
            "SHANAME": "周德成",
            "SUBCONAM": "35.000000",
            "baseId": "320000\u0001320500000000002390492\u00011949100100000018686500",
            "id": "7125641dbbac4f5fb674f3ba56152863"
          },
          {
            "CONDATE": "2015-10-28",
            "CONFORM": "",
            "CONFORMCODE": "货币",
            "CREDITCODE": "",
            "CURRENCYCODE": "156",
            "FUNDEDRATIO": "0.98%",
            "INVTYPE": "自然人股东",
            "INVTYPECODE": "20",
            "REGCAPCUR": "人民币元",
            "REGNO": "",
            "SHANAME": "庞良",
            "SUBCONAM": "35.000000",
            "baseId": "320000\u0001320500000000002390492\u00011949100100000018686500",
            "id": "c9694387ef3e4b01911dfee4edb9b55c"
          },
          {
            "CONDATE": "1996-05-28",
            "CONFORM": "",
            "CONFORMCODE": "货币",
            "CREDITCODE": "",
            "CURRENCYCODE": "156",
            "FUNDEDRATIO": "0.61%",
            "INVTYPE": "自然人股东",
            "INVTYPECODE": "20",
            "REGCAPCUR": "人民币元",
            "REGNO": "",
            "SHANAME": "陈志雷",
            "SUBCONAM": "22.000000",
            "baseId": "320000\u0001320500000000002390492\u00011949100100000018686500",
            "id": "60da2275f97b45c7a97c0b242f891f40"
          },
          {
            "CONDATE": "2015-10-28",
            "CONFORM": "",
            "CONFORMCODE": "货币",
            "CREDITCODE": "",
            "CURRENCYCODE": "156",
            "FUNDEDRATIO": "0.36%",
            "INVTYPE": "自然人股东",
            "INVTYPECODE": "20",
            "REGCAPCUR": "人民币元",
            "REGNO": "",
            "SHANAME": "顾金强",
            "SUBCONAM": "13.000000",
            "baseId": "320000\u0001320500000000002390492\u00011949100100000018686500",
            "id": "14838ceb7e8547868eb7dffa7de3b5fa"
          },
          {
            "CONDATE": "2015-10-28",
            "CONFORM": "",
            "CONFORMCODE": "货币",
            "CREDITCODE": "",
            "CURRENCYCODE": "156",
            "FUNDEDRATIO": "0.36%",
            "INVTYPE": "自然人股东",
            "INVTYPECODE": "20",
            "REGCAPCUR": "人民币元",
            "REGNO": "",
            "SHANAME": "何鹏程",
            "SUBCONAM": "13.000000",
            "baseId": "320000\u0001320500000000002390492\u00011949100100000018686500",
            "id": "9606a383b86e446f80343855d21a9a5a"
          },
          {
            "CONDATE": "2015-10-28",
            "CONFORM": "",
            "CONFORMCODE": "货币",
            "CREDITCODE": "",
            "CURRENCYCODE": "156",
            "FUNDEDRATIO": "0.36%",
            "INVTYPE": "自然人股东",
            "INVTYPECODE": "20",
            "REGCAPCUR": "人民币元",
            "REGNO": "",
            "SHANAME": "史卫芬",
            "SUBCONAM": "13.000000",
            "baseId": "320000\u0001320500000000002390492\u00011949100100000018686500",
            "id": "afd3a889581842b3959c0565e1117580"
          },
          {
            "CONDATE": "2015-10-28",
            "CONFORM": "",
            "CONFORMCODE": "货币",
            "CREDITCODE": "",
            "CURRENCYCODE": "156",
            "FUNDEDRATIO": "0.36%",
            "INVTYPE": "自然人股东",
            "INVTYPECODE": "20",
            "REGCAPCUR": "人民币元",
            "REGNO": "",
            "SHANAME": "练建明",
            "SUBCONAM": "13.000000",
            "baseId": "320000\u0001320500000000002390492\u00011949100100000018686500",
            "id": "18d069ec5d9d44a8818a13ada6685ce5"
          },
          {
            "CONDATE": "2015-10-28",
            "CONFORM": "",
            "CONFORMCODE": "货币",
            "CREDITCODE": "",
            "CURRENCYCODE": "156",
            "FUNDEDRATIO": "0.36%",
            "INVTYPE": "自然人股东",
            "INVTYPECODE": "20",
            "REGCAPCUR": "人民币元",
            "REGNO": "",
            "SHANAME": "陈国民",
            "SUBCONAM": "13.000000",
            "baseId": "320000\u0001320500000000002390492\u00011949100100000018686500",
            "id": "3567d73659b3407e9033289ff0e36764"
          },
          {
            "CONDATE": "2015-10-28",
            "CONFORM": "",
            "CONFORMCODE": "货币",
            "CREDITCODE": "",
            "CURRENCYCODE": "156",
            "FUNDEDRATIO": "0.36%",
            "INVTYPE": "自然人股东",
            "INVTYPECODE": "20",
            "REGCAPCUR": "人民币元",
            "REGNO": "",
            "SHANAME": "朱斌",
            "SUBCONAM": "13.000000",
            "baseId": "320000\u0001320500000000002390492\u00011949100100000018686500",
            "id": "b78738f0f8cf49709f6b5e87d418c7a3"
          },
          {
            "CONDATE": "1996-05-28",
            "CONFORM": "",
            "CONFORMCODE": "货币",
            "CREDITCODE": "",
            "CURRENCYCODE": "156",
            "FUNDEDRATIO": "0.36%",
            "INVTYPE": "自然人股东",
            "INVTYPECODE": "20",
            "REGCAPCUR": "人民币元",
            "REGNO": "",
            "SHANAME": "孙华",
            "SUBCONAM": "13.000000",
            "baseId": "320000\u0001320500000000002390492\u00011949100100000018686500",
            "id": "dd965798882b4e9ca72dc1e18aa76448"
          },
          {
            "CONDATE": "2015-10-28",
            "CONFORM": "",
            "CONFORMCODE": "货币",
            "CREDITCODE": "",
            "CURRENCYCODE": "156",
            "FUNDEDRATIO": "0.36%",
            "INVTYPE": "自然人股东",
            "INVTYPECODE": "20",
            "REGCAPCUR": "人民币元",
            "REGNO": "",
            "SHANAME": "张松兵",
            "SUBCONAM": "13.000000",
            "baseId": "320000\u0001320500000000002390492\u00011949100100000018686500",
            "id": "9e93ba57c0024e89a71264bb8e5cf0d6"
          },
          {
            "CONDATE": "2015-10-28",
            "CONFORM": "",
            "CONFORMCODE": "货币",
            "CREDITCODE": "",
            "CURRENCYCODE": "156",
            "FUNDEDRATIO": "0.36%",
            "INVTYPE": "自然人股东",
            "INVTYPECODE": "20",
            "REGCAPCUR": "人民币元",
            "REGNO": "",
            "SHANAME": "张志清",
            "SUBCONAM": "13.000000",
            "baseId": "320000\u0001320500000000002390492\u00011949100100000018686500",
            "id": "6aa8893244ed4b84af872f9dc233d1ce"
          },
          {
            "CONDATE": "2015-10-28",
            "CONFORM": "",
            "CONFORMCODE": "货币",
            "CREDITCODE": "",
            "CURRENCYCODE": "156",
            "FUNDEDRATIO": "0.36%",
            "INVTYPE": "自然人股东",
            "INVTYPECODE": "20",
            "REGCAPCUR": "人民币元",
            "REGNO": "",
            "SHANAME": "朱瑞华",
            "SUBCONAM": "13.000000",
            "baseId": "320000\u0001320500000000002390492\u00011949100100000018686500",
            "id": "b645ce0e26a44e18aa78179b6fa1d1b3"
          },
          {
            "CONDATE": "2015-10-28",
            "CONFORM": "",
            "CONFORMCODE": "货币",
            "CREDITCODE": "",
            "CURRENCYCODE": "156",
            "FUNDEDRATIO": "0.36%",
            "INVTYPE": "自然人股东",
            "INVTYPECODE": "20",
            "REGCAPCUR": "人民币元",
            "REGNO": "",
            "SHANAME": "周红杨",
            "SUBCONAM": "13.000000",
            "baseId": "320000\u0001320500000000002390492\u00011949100100000018686500",
            "id": "388de5aa3c684ecfa481c9cad4b5da2b"
          },
          {
            "CONDATE": "2015-10-28",
            "CONFORM": "",
            "CONFORMCODE": "货币",
            "CREDITCODE": "",
            "CURRENCYCODE": "156",
            "FUNDEDRATIO": "0.36%",
            "INVTYPE": "自然人股东",
            "INVTYPECODE": "20",
            "REGCAPCUR": "人民币元",
            "REGNO": "",
            "SHANAME": "陆玉兴",
            "SUBCONAM": "13.000000",
            "baseId": "320000\u0001320500000000002390492\u00011949100100000018686500",
            "id": "58e56e5175af49fba986281694655263"
          },
          {
            "CONDATE": "2015-10-28",
            "CONFORM": "",
            "CONFORMCODE": "货币",
            "CREDITCODE": "",
            "CURRENCYCODE": "156",
            "FUNDEDRATIO": "0.36%",
            "INVTYPE": "自然人股东",
            "INVTYPECODE": "20",
            "REGCAPCUR": "人民币元",
            "REGNO": "",
            "SHANAME": "钱纯",
            "SUBCONAM": "13.000000",
            "baseId": "320000\u0001320500000000002390492\u00011949100100000018686500",
            "id": "b669a7802d364dcdac68dbb3e0e35a32"
          },
          {
            "CONDATE": "2015-10-28",
            "CONFORM": "",
            "CONFORMCODE": "货币",
            "CREDITCODE": "",
            "CURRENCYCODE": "156",
            "FUNDEDRATIO": "0.36%",
            "INVTYPE": "自然人股东",
            "INVTYPECODE": "20",
            "REGCAPCUR": "人民币元",
            "REGNO": "",
            "SHANAME": "徐鹏飞",
            "SUBCONAM": "13.000000",
            "baseId": "320000\u0001320500000000002390492\u00011949100100000018686500",
            "id": "6a89eb8f5ef04786b4860146da700e05"
          },
          {
            "CONDATE": "2015-10-28",
            "CONFORM": "",
            "CONFORMCODE": "货币",
            "CREDITCODE": "",
            "CURRENCYCODE": "156",
            "FUNDEDRATIO": "0.36%",
            "INVTYPE": "自然人股东",
            "INVTYPECODE": "20",
            "REGCAPCUR": "人民币元",
            "REGNO": "",
            "SHANAME": "刘叶芳",
            "SUBCONAM": "13.000000",
            "baseId": "320000\u0001320500000000002390492\u00011949100100000018686500",
            "id": "313d57332dc04c6486e0a684c9460f01"
          },
          {
            "CONDATE": "2015-10-28",
            "CONFORM": "",
            "CONFORMCODE": "货币",
            "CREDITCODE": "",
            "CURRENCYCODE": "156",
            "FUNDEDRATIO": "0.36%",
            "INVTYPE": "自然人股东",
            "INVTYPECODE": "20",
            "REGCAPCUR": "人民币元",
            "REGNO": "",
            "SHANAME": "孙建勇",
            "SUBCONAM": "13.000000",
            "baseId": "320000\u0001320500000000002390492\u00011949100100000018686500",
            "id": "5657b7c331184d7f92fecf371a2be8a9"
          },
          {
            "CONDATE": "2015-10-28",
            "CONFORM": "",
            "CONFORMCODE": "货币",
            "CREDITCODE": "",
            "CURRENCYCODE": "156",
            "FUNDEDRATIO": "0.36%",
            "INVTYPE": "自然人股东",
            "INVTYPECODE": "20",
            "REGCAPCUR": "人民币元",
            "REGNO": "",
            "SHANAME": "郑皆旺",
            "SUBCONAM": "13.000000",
            "baseId": "320000\u0001320500000000002390492\u00011949100100000018686500",
            "id": "e6cf8dca4daa46a09201c052f64fce9f"
          },
          {
            "CONDATE": "2015-10-28",
            "CONFORM": "",
            "CONFORMCODE": "货币",
            "CREDITCODE": "",
            "CURRENCYCODE": "156",
            "FUNDEDRATIO": "0.36%",
            "INVTYPE": "自然人股东",
            "INVTYPECODE": "20",
            "REGCAPCUR": "人民币元",
            "REGNO": "",
            "SHANAME": "余胜华",
            "SUBCONAM": "13.000000",
            "baseId": "320000\u0001320500000000002390492\u00011949100100000018686500",
            "id": "3248b2bcf6554a8a866810f190b2a1f7"
          },
          {
            "CONDATE": "2015-10-28",
            "CONFORM": "",
            "CONFORMCODE": "货币",
            "CREDITCODE": "",
            "CURRENCYCODE": "156",
            "FUNDEDRATIO": "0.36%",
            "INVTYPE": "自然人股东",
            "INVTYPECODE": "20",
            "REGCAPCUR": "人民币元",
            "REGNO": "",
            "SHANAME": "蒋华",
            "SUBCONAM": "13.000000",
            "baseId": "320000\u0001320500000000002390492\u00011949100100000018686500",
            "id": "0db35001e7e047e4a4657bed4abaafb6"
          },
          {
            "CONDATE": "2015-10-28",
            "CONFORM": "",
            "CONFORMCODE": "货币",
            "CREDITCODE": "",
            "CURRENCYCODE": "156",
            "FUNDEDRATIO": "0.36%",
            "INVTYPE": "自然人股东",
            "INVTYPECODE": "20",
            "REGCAPCUR": "人民币元",
            "REGNO": "",
            "SHANAME": "华清",
            "SUBCONAM": "13.000000",
            "baseId": "320000\u0001320500000000002390492\u00011949100100000018686500",
            "id": "cca429bfe9854460ba6adffa6b333c5a"
          },
          {
            "CONDATE": "2015-10-28",
            "CONFORM": "",
            "CONFORMCODE": "货币",
            "CREDITCODE": "",
            "CURRENCYCODE": "156",
            "FUNDEDRATIO": "0.36%",
            "INVTYPE": "自然人股东",
            "INVTYPECODE": "20",
            "REGCAPCUR": "人民币元",
            "REGNO": "",
            "SHANAME": "汪嵘",
            "SUBCONAM": "13.000000",
            "baseId": "320000\u0001320500000000002390492\u00011949100100000018686500",
            "id": "be0eb0c51dbe44a882932789bdf11331"
          },
          {
            "CONDATE": "2015-10-28",
            "CONFORM": "",
            "CONFORMCODE": "货币",
            "CREDITCODE": "",
            "CURRENCYCODE": "156",
            "FUNDEDRATIO": "0.36%",
            "INVTYPE": "自然人股东",
            "INVTYPECODE": "20",
            "REGCAPCUR": "人民币元",
            "REGNO": "",
            "SHANAME": "周良良",
            "SUBCONAM": "13.000000",
            "baseId": "320000\u0001320500000000002390492\u00011949100100000018686500",
            "id": "5e4be37a556c4684853fd4a0ed6cf1ab"
          },
          {
            "CONDATE": "1996-05-28",
            "CONFORM": "",
            "CONFORMCODE": "货币",
            "CREDITCODE": "",
            "CURRENCYCODE": "156",
            "FUNDEDRATIO": "0.31%",
            "INVTYPE": "自然人股东",
            "INVTYPECODE": "20",
            "REGCAPCUR": "人民币元",
            "REGNO": "",
            "SHANAME": "唐新建",
            "SUBCONAM": "11.100000",
            "baseId": "320000\u0001320500000000002390492\u00011949100100000018686500",
            "id": "32a1fa4d31a940bd800069da5209700d"
          }
        ],
        "STOCKPAWN": null,
        "STOCKPAWNALT": null,
        "STOCKPAWNREV": null,
        "YEARREPORTALTER": null,
        "YEARREPORTALTERSTOCK": null,
        "YEARREPORTBASIC": null,
        "YEARREPORTFORINV": null,
        "YEARREPORTPAIDUPCAPITAL": null,
        "YEARREPORTSOCSEC": null,
        "YEARREPORTSUBCAPITAL": null,
        "YEARREPORTWEBSITEINFO": null
      },
      "MSG": "OK"
    }
  },
  "i18nData": null,
  "extData": null,
  "erorcd": "0000",
  "erortx": "交易成功"
}