{
  "data": {
    "accLoanList": [
      {
        "account_class": "",
        "account_status": "",
        "assure_means_main ": "",
        "bill_no": "",
        "biz_type": "",
        "cert_code": "",
        "cont_no": "",
        "cus_id": "",
        "default_ir ": 0,
        "enter_account": "",
        "loan_amount ": 0,
        "loan_balance": 0,
        "loan_direction": "",
        "loan_end_date": "",
        "loan_od_int_rate1": 0,
        "loan_paym_mtd": "",
        "loan_start_date ": "",
        "prd_name": "",
        "reality_ir_y ": 0,
        "repayment_account": ""
      }
    ]
  },
  "datasq": "test",
  "erorcd": "0000",
  "erortx": "交易成功"
}