{
  "brchno": "1",
  "data": {
    "cusId": "21",
    "dtghFlag": "22",
    "singleCusQuota": 0
  },
  "datasq": "4",
  "ipaddr": "5",
  "mac": "6",
  "servdt": "7",
  "servsq": "8",
  "servti": "9",
  "servtp": "10",
  "userid": "11",
  "waibclma": "12"
}