{
  "code": "0",
  "total": 0,
  "message": "交易成功",
  "level": null,
  "data": {
    "rptem1": "",
    "rptem2": "",
    "rptem3": "",
    "rptem4": ""
  },
  "i18nData": null,
  "extData": null,
  "erorcd": "0000",
  "erortx": "交易成功"
}