[
  {
    "brchno": "019801",
    "data": {
      "bizType": "123",
      "oprtype": "01",
      "billNo": "fda5184a-bbfb-45da-8ff0-76cbeaf4df1f",
      "prdName": "11111",
      "prdId": "123",
      "contNo": "123",
      "cusId": "2119726515",
      "cusName": "20210619",
      "loanAmt": "123",
      "curType": "10000",
      "loanBalance": "22222",
      "loanStartDate": "123",
      "loanEndDate": "123",
      "rulingIr": "123",
      "realityIrY": "123",
      "rateFloat": "1",
      "accStatus": "123",
      "inputId": "123",
      "finaBrId": "123",
      "managerId": "123",
      "managerBrId": "123",
      "cretQuotationExchgRate": "123"
    },
    "datasq": "311aqwaa293",
    "ipaddr": "",
    "mac": "",
    "servdt": "20210609",
    "servsq": "NFK2021060900000000001",
    "servti": "152727",
    "servtp": "NFK",
    "userid": "0198777",
    "waibclma": "xdtz0021"
  },
  {
    "brchno": "019801",
    "data": {
      "bizType": "123",
      "oprtype": "02",
      "billNo": "fda5184a-bbfb-45da-8ff0-76cbeaf4df1f",
      "prdName": "11111",
      "prdId": "123",
      "contNo": "123",
      "cusId": "2119726515",
      "cusName": "20210619",
      "loanAmt": "123",
      "curType": "10000",
      "loanBalance": "22222",
      "loanStartDate": "123",
      "loanEndDate": "123",
      "rulingIr": "123",
      "realityIrY": "123",
      "rateFloat": "1",
      "accStatus": "123",
      "inputId": "123",
      "finaBrId": "123",
      "managerId": "123",
      "managerBrId": "123",
      "cretQuotationExchgRate": "123"
    },
    "datasq": "311aaa293",
    "ipaddr": "",
    "mac": "",
    "servdt": "20210609",
    "servsq": "NFK2021060900000000001",
    "servti": "152727",
    "servtp": "NFK",
    "userid": "0198777",
    "waibclma": "xdtz0021"
  }
]