{

  "servtp": "1",
  "userid": "1",
  "brchno": "1",
  "datasq": "SQTA26",
  "servsq": "1",
  "servdt": "1",
  "servti": "1",
  "ipaddr": "1",
  "mac": "1",
  "waibclma": "1",
  "djiebhao": "1",
  "data":{
    "credit_id": "2",
    "credit_type": "2",
    "cus_id": "2",
    "cus_name": "2",
    "listEntl": [
      {
        "app_no": "SQ111",
        "ent_annual_sales": 0,
        "ent_buz_lic_no": "1",
        "ent_buz_scope": "1",
        "ent_name": "1",
        "ent_region": "1"
      },
      {
        "app_no": "SQ112",
        "ent_annual_sales": 2,
        "ent_buz_lic_no": "2",
        "ent_buz_scope": "2",
        "ent_name": "2",
        "ent_region": "2"
      }
    ],
    "listHouse": [
      {
        "acreage": 0,
        "area_id": "1",
        "area_name": "1",
        "area_zip_code": "1",
        "bicycle_garage": "1",
        "bicycle_garage_eval": "1",
        "building_id": "1",
        "building_name": "1",
        "city_alias": "1",
        "city_id": "1",
        "city_name": "1",
        "city_zip_code": "1",
        "eval_method": "1",
        "eval_value": 0,
        "floor": "1",
        "guaranty_id": "1",
        "house_area": 0,
        "house_id": "1",
        "house_name": "1",
        "house_region_info": "1",
        "house_right_no": "1",
        "house_type": "1",
        "is_rent": "1",
        "loft_area": "1",
        "loft_eval": "1",
        "mortgagee": "1",
        "park_space_eval": "1",
        "parking_area": "1",
        "project_id": "1",
        "project_name": "1",
        "province_alias": "1",
        "province_id": "1",
        "province_name": "1",
        "province_zip_code": "1",
        "total_floor": "1",
        "total_value": "1"
      },
      {
        "acreage": 1,
        "area_id": "2",
        "area_name": "2",
        "area_zip_code": "2",
        "bicycle_garage": "2",
        "bicycle_garage_eval": "2",
        "building_id": "2",
        "building_name": "2",
        "city_alias": "2",
        "city_id": "2",
        "city_name": "2",
        "city_zip_code": "2",
        "eval_method": "2",
        "eval_value": 2,
        "floor": "2",
        "guaranty_id": "2",
        "house_area": 2,
        "house_id": "2",
        "house_name": "2",
        "house_region_info": "2",
        "house_right_no": "2",
        "house_type": "2",
        "is_rent": "2",
        "loft_area": "2",
        "loft_eval": "2",
        "mortgagee": "2",
        "park_space_eval": "2",
        "parking_area": "2",
        "project_id": "2",
        "project_name": "2",
        "province_alias": "2",
        "province_id": "2",
        "province_name": "2",
        "province_zip_code": "2",
        "total_floor": "2",
        "total_value": "2"
      }
    ],
    "manager_id": "2",
    "manager_name": "2",
    "phone_no": "2"
  }
}
