{
  "data": {
    "list": [
      {
        "approveStatus": "000",
        "authbookContent": "",
        "authbookNo": "",
        "certCode": "3501237",
        "certType": "100",
        "crqlSerno": "CRE2021051800000471",
        "cusId": "2546E5C7A0C843B9B2B3EF3368E7BBE3",
        "qryResn": ""
      },
      {
        "approveStatus": "000",
        "authbookContent": "",
        "authbookNo": "",
        "certCode": "3501237",
        "certType": "100",
        "crqlSerno": "CRE2021051900000485",
        "cusId": "2546E5C7A0C843B9B2B3EF3368E7BBE3",
        "qryResn": ""
      },
      {
        "approveStatus": "000",
        "authbookContent": "",
        "authbookNo": "",
        "certCode": "3501237",
        "certType": "100",
        "crqlSerno": "CRE2021051900000486",
        "cusId": "2546E5C7A0C843B9B2B3EF3368E7BBE3",
        "qryResn": ""
      },
      {
        "approveStatus": "000",
        "authbookContent": "",
        "authbookNo": "",
        "certCode": "3501237",
        "certType": "100",
        "crqlSerno": "CRE2021051900000532",
        "cusId": "2546E5C7A0C843B9B2B3EF3368E7BBE3",
        "qryResn": ""
      },
      {
        "approveStatus": "000",
        "authbookContent": "",
        "authbookNo": "",
        "certCode": "3501237",
        "certType": "100",
        "crqlSerno": "CRE2021051900000533",
        "cusId": "2546E5C7A0C843B9B2B3EF3368E7BBE3",
        "qryResn": ""
      },
      {
        "approveStatus": "000",
        "authbookContent": "",
        "authbookNo": "",
        "certCode": "3501237",
        "certType": "100",
        "crqlSerno": "CRE2021051900000534",
        "cusId": "2546E5C7A0C843B9B2B3EF3368E7BBE3",
        "qryResn": ""
      }
    ]
  },
  "datasq": "XDG2021061200000002219",
  "erorcd": "0000",
  "erortx": "交易成功"
}