{
  "code": "0",
  "total": 0,
  "message": "交易成功",
  "level": null,
  "data": {
    "common_hold_portio": 0.5,
    "common_owner_name": "刘玉",
    "guar_no": "DW2012006752"
  },
  "i18nData": null,
  "extData": null,
  "erorcd": "0000",
  "erortx": "交易成功"
}