{
  "brchno": "1",
  "data": {
    "cusId": "1000000001",
    "contNo": "252526",
    "grtContNo": "252526",
    "applyDate": "20210331"
  },
  "datasq": "111111111125",
  "ipaddr": "1",
  "mac": "1",
  "servdt": "20210609",
  "servsq": "NFK2021060900000000001",
  "servti": "152727",
  "servtp": "NFK",
  "userid": "0198777",
  "waibclma": "xdht0018"
}