{
"qzbzxx":"",
"datasq":"XDG2021041414165228444",
"servsq":"XDO202104140216520233880711",
"userid":"zjgrcb",
"djrmyp":"00334197",
"djjgyp":"",
"qzdqrq":"2024-09-07",
"dyswbs":"01",
"qljeyp":"500000",
"operat":"01",
"prcscd":"cetinf",
"djrqyp":"2021-04-01",
"sernoy":"YP20200167307",
"qzlxyp":"10001",
"qzfzjg":"苏州不动产登记中心",
"brchno":"019803",
"dbhtbh":"DB20210347862",
"servtp":"XDG",
"qzztyp":"10006",
"qzffrq":"2021-04-14",
"qlpzhm":"苏（2020）苏州市不动产证明第6015709号",
"cetinfListInfo":
	[{
	"yptybh":"DY020100220200818107420"
	}]
}