{
  "datasq": "XDG2021052900000065573",
  "manageBrId": "77010978",
  "servsq": "XDG2021052900000065573",
  "userid": "80010422",
  "mac": "",
  "ipaddr": "",
  "prcscd": "xdpj23",
  "brchno": "019803",
  "servtp": "XDG",
  "sBatchNo": "CD2011300134",
  "servti": "",
  "servdt": ""
}
