{
  "servtp": "1",
  "waibclma": "1",
  "userid": "1",
  "brchno": "1",
  "datasq": "1",
  "servsq": "1",
  "servdt": "1",
  "djiebhao": "1",
  "servti": "1",
  "ipaddr": "1",
  "mac": "1",
  "data": {
    "cusId": "1000000001"
  }
}