{
  "data": {
    "optList": [
      {
        "actorName": "sl1",
        "actorNo": "sl1",
        "orgId": "000000",
        "organShortForm": null,
        "roleName": "系统管理员角色,公司客户经理,小微客户经理,零售客户经理",
        "roleNo": "R001,R0020,R0010,R0030",
        "telNum": null,
        "xfOrgId": null
      }
    ]
  },
  "datasq": "XDG2021053100000070293",
  "erorcd": "0000",
  "erortx": "交易成功"
}