{
  "lixiheji": "",
  "ysyjlixi": "",
  "dkzhangh": "",
  "tqhkfjje": "",
  "kehuhaoo": "",
  "qixiriqi": "",
  "qiankzee": "",
  "zhjhaoma": "",
  "yshofaxi": "",
  "fajiftbl": "",
  "daizbjin": "",
  "daikczbz": "3",
  "dzhibjin": "",
  "fajirzxh": "",
  "cshofaxi": "",
  "daoqriqi": "",
  "tqhkhxfs": "",
  "tqhktzfs": "1",
  "csyjlixi": "",
  "pngzxhao": "",
  "zhchbjin": "",
  "csqianxi": "",
  "dktqhkzl": "2",
  "ysqianxi": "",
  "hkbeizhu": "",
  "kehuzhlx": "0",
  "prcsna": "贷款归还",
  "hkzhhzxh": "00001",
  "dkqixian": "",
  "daikghfs": "01",
  "pingzhma": "",
  "huankjee": "333.00",
  "huandzms": "",
  "yshxhbje": "",
  "zhjnzlei": "",
  "ysyjfaxi": "",
  "tqhktysx": "",
  "huankzhh": "62312390015374711",
  "jiaoymma": "",
  "yuqibjin": "",
  "mimazlei": "",
  "pingzhzl": "",
  "huankzle": "3",
  "huobdhao": "01",
  "fajirzzh": "",
  "hetongbh": "",
  "yanmjine": "",
  "csyjfaxi": "",
  "kehuzwmc": "",
  "fuxiiiii": "",
  "zhfutojn": "",
  "yingjifx": "",
  "dkjiejuh": "016000210417908",
  "zijnlaiy": "1",
  "sfqzjieq": "",
  "benjheji": ""
}