{
  "code": "9999",
  "total": 0,
  "message": "[CBS]00000000000000000838[0423]输入要素[货币代号]不合法, 要素[货币代号-huobdhao]值[1]未在字典[BaseEnumType.E_HUOBDAIH]中定义[新核心系统]",
  "level": null,
  "data": {
    "daizbjin": null,
    "daoqriqi": null,
    "dkjiejuh": null,
    "dkrzhzhh": null,
    "dzhibjin": null,
    "ghcsyjfx": null,
    "ghcsyjlx": null,
    "ghcushfx": null,
    "ghcushqx": null,
    "ghfxfuxi": null,
    "ghyjfuxi": null,
    "ghynshfx": null,
    "ghynshqx": null,
    "ghysyjfx": null,
    "ghysyjlx": null,
    "hetongbh": null,
    "hkzhhzxh": null,
    "huankjee": null,
    "huankzhh": null,
    "huobdhao": null,
    "jiaoyigy": null,
    "jiaoyils": null,
    "jiaoyirq": null,
    "jiejuuje": null,
    "kaihriqi": null,
    "kehuhaoo": null,
    "kehuzwmc": null,
    "lstZhzy": null,
    "yuqibjin": null,
    "yuqililv": null,
    "zdzyzhbz": null,
    "zhanghye": null,
    "zhchbjin": null,
    "zhchlilv": null,
    "zjzrzhao": null,
    "zjzrzzxh": null
  },
  "i18nData": null,
  "extData": null
}