{
  "code": "9999",
  "total": 0,
  "message": "[CBS]00000000000000001183[Loan.E1418]展期日期必须等于贷款到期日 [新核心系统]",
  "level": null,
  "data": {
    "daikczbz": "",
    "dkjiejuh": "",
    "dkzhangh": "",
    "hetongbh": "",
    "huobdhao": "",
    "jiaoyils": "",
    "kaihguiy": "",
    "kaihriqi": "",
    "kehmingc": "",
    "kehuhaoo": "",
    "lilvfdfs": "",
    "lilvfdzh": null,
    "lilvleix": "",
    "lilvtzfs": "",
    "lilvtzzq": "",
    "zhanqdqr": "",
    "zhanqhth": "",
    "zhanqije": null,
    "zhanqirq": "",
    "zhanqixh": null,
    "zhchlilv": null
  },
  "i18nData": null,
  "extData": null
}