{
  "brchno": "1",
  "data":{
    "acesbs": "",
    "adminSubRel": "",
    "areaPriorCopr": "",
    "areaad": "",
    "basicAccNoOpenDate": "",
    "basicDepAccNo": "",
    "basicDepAccNoOpenLic": "",
    "basicDepAccob": "",
    "basicDepAccobId": "",
    "bscity": "",
    "bscuty": "",
    "bserea": "",
    "bspost": "",
    "bsprov": "",
    "bulidDate": "",
    "busiad": "",
    "busstp": "",
    "certCode": "1122",
    "certEndDate": "",
    "certStartDate": "",
    "certType": "",
    "clostg": "",
    "cncatg": "",
    "commonOperPro": "",
    "comput": "",
    "corpScale": "",
    "corpType": "",
    "corpnu": "",
    "corppr": "",
    "cropcd": "",
    "cropdt": "",
    "csstna": "",
    "ctigna": "",
    "ctigno": "",
    "ctigph": "",
    "cusEnName": "",
    "cusId": "2211",
    "cusName": "aa",
    "cusStatus": "99",
    "cusType": "",
    "debttp": "",
    "depart": "",
    "depotp": "",
    "domitg": "",
    "elmntg": "",
    "email": "",
    "emplnm": 0,
    "enaddr": "",
    "entetp": "",
    "envifg": "",
    "envirt": "",
    "exegtg": "",
    "famltg": "",
    "farmtg": "",
    "fax": "",
    "fibrtg": "",
    "finacd": "",
    "finatg": "",
    "goverInvestPlat": "",
    "grpctg": "",
    "gvbgdt": "",
    "gveddt": "",
    "gvlnlv": "",
    "gvlwtp": "",
    "gvrgno": "",
    "gvtion": "",
    "hgegtg": "",
    "hgplcp": "",
    "hightg": "",
    "holdType": "",
    "hometl": "",
    "imagno": "",
    "impexpFlag": "",
    "indutg": "",
    "initLoanDate": "",
    "investMbody": "",
    "isBankShd": "",
    "isNatctl": "",
    "isSteelCus": "",
    "isStockCorp": "",
    "isbdcp": "",
    "istdcs": "",
    "jgxyno": "",
    "landtg": "",
    "leadtg": "",
    "licetg": "",
    "listld": "",
    "loanType": "",
    "loanno": "",
    "naticd": "",
    "needfp": "",
    "netast": 0,
    "notxrs": "",
    "nttxno": "",
    "onacnm": 0,
    "operPlaceOwnshp": "",
    "operStatus": "",
    "operTerm": "",
    "oreddt": "",
    "orgatp": "",
    "paidCapAmt": 0,
    "paidCapCurType": "",
    "pasvfg": "",
    "petytg": "",
    "plattg": "",
    "propts": "",
    "regadr": "",
    "regiAddr": "",
    "regiCapAmt": 0,
    "regiCurType": "",
    "regiStartDate": "",
    "regiType": "",
    "regicd": "",
    "reletg": "",
    "resutg": "",
    "rgcity": "",
    "rgctry": "",
    "rgcuty": "",
    "rgerea": "",
    "rgpost": "",
    "rgprov": "",
    "rhtype": "",
    "sharhd": 0,
    "spOperFlag": "",
    "spcltg": "",
    "spectp": "",
    "spntcd": "",
    "stoccd": "",
    "stoctp": "",
    "stratp": "",
    "strutp": "",
    "sumast": 0,
    "supptg": "",
    "swbgdt": "",
    "sweddt": "",
    "swifcd": "",
    "swtion": "",
    "syccde": "",
    "taxadr": "",
    "taxnum": "",
    "taxpac": "",
    "taxpad": "",
    "taxpna": "",
    "taxptl": "",
    "taxptp": "",
    "totlnm": 0,
    "txbkna": "",
    "txnion": "",
    "txpstp": "",
    "upcrps": "",
    "upidno": "",
    "upidtp": "",
    "websit": "",
    "wkflar": 0
  },
  "datasq": "sqt23",
  "ipaddr": "5",
  "mac": "6",
  "servdt": "7",
  "servsq": "8",
  "servti": "9",
  "servtp": "10",
  "userid": "11",
  "waibclma": "12"
}