{
  "code": "9999",
  "total": 0,
  "message": "【客户名称:沈建客户号:2032546639证件号：32058219930329477X】下的预授信申请未面签成功,请先进行面签![对公智能风控系统]",
  "level": null,
  "data": {
    "CRD_ITEM_NUM": null,
    "HOSE_LIST": null,
    "NEW_PRE_CRD_AMT": null,
    "OLS_DATE": null,
    "OLS_TRAN_NO": null
  },
  "i18nData": null,
  "extData": null,
  "erorcd": "9999",
  "erortx": "【客户名称:沈建客户号:2032546639证件号：32058219930329477X】下的预授信申请未面签成功,请先进行面签![对公智能风控系统]"
}