{
  "brchno": "1",
  "data": {
    "loanContNo": "HT002",
    "grtContNo": ""
  },
  "datasq": "1231wcf4112fef412414f2411241212312242141424d21142124f122312421e2421d",
  "ipaddr": "1",
  "mac": "1",
  "servdt": "1",
  "servsq": "1",
  "servti": "1",
  "servtp": "1",
  "userid": "1",
  "waibclma": "1"
}
