{
  "data": {
    "listApply": [
      {
        "applyAmt": null,
        "cusId": "2",
        "isMicroDept": "Y",
        "loanType": "01",
        "serno": "2",
        "teamType": null
      },
      {
        "applyAmt": null,
        "cusId": null,
        "isMicroDept": "Y",
        "loanType": "01",
        "serno": "4333",
        "teamType": null
      },
      {
        "applyAmt": null,
        "cusId": null,
        "isMicroDept": "Y",
        "loanType": "01",
        "serno": "B2E325CC20F34950BD885BD01130BBE4",
        "teamType": null
      },
      {
        "applyAmt": null,
        "cusId": null,
        "isMicroDept": "Y",
        "loanType": "01",
        "serno": "EB73F9C5E53D417B9D9DA69B85BAC658",
        "teamType": null
      },
      {
        "applyAmt": null,
        "cusId": "2119726531",
        "isMicroDept": "Y",
        "loanType": "01",
        "serno": "XD20210527000014311",
        "teamType": null
      },
      {
        "applyAmt": null,
        "cusId": "800000701",
        "isMicroDept": "Y",
        "loanType": "01",
        "serno": "XD20210602100118",
        "teamType": null
      },
      {
        "applyAmt": null,
        "cusId": "2119734739",
        "isMicroDept": "Y",
        "loanType": "01",
        "serno": "XD202106040000110",
        "teamType": null
      },
      {
        "applyAmt": null,
        "cusId": "2023510619",
        "isMicroDept": "Y",
        "loanType": "01",
        "serno": "XD202106040000116",
        "teamType": null
      },
      {
        "applyAmt": null,
        "cusId": "2023510619",
        "isMicroDept": "Y",
        "loanType": "01",
        "serno": "XD202106060000117",
        "teamType": null
      },
      {
        "applyAmt": null,
        "cusId": "2119726531",
        "isMicroDept": "Y",
        "loanType": "01",
        "serno": "XD202106070000001",
        "teamType": null
      },
      {
        "applyAmt": null,
        "cusId": "2119726531",
        "isMicroDept": "Y",
        "loanType": "01",
        "serno": "XD202106070000101",
        "teamType": null
      },
      {
        "applyAmt": null,
        "cusId": "2119726531",
        "isMicroDept": "Y",
        "loanType": "01",
        "serno": "XD202106070000102",
        "teamType": null
      },
      {
        "applyAmt": null,
        "cusId": "2119733317",
        "isMicroDept": "Y",
        "loanType": "01",
        "serno": "XD202106070000118",
        "teamType": null
      },
      {
        "applyAmt": null,
        "cusId": "2119726531",
        "isMicroDept": "Y",
        "loanType": "01",
        "serno": "XD202106070000121",
        "teamType": null
      },
      {
        "applyAmt": null,
        "cusId": "800000701",
        "isMicroDept": "Y",
        "loanType": "01",
        "serno": "XD202106070100118",
        "teamType": null
      },
      {
        "applyAmt": null,
        "cusId": "2119734216",
        "isMicroDept": "Y",
        "loanType": "01",
        "serno": "XD202106080000142",
        "teamType": null
      },
      {
        "applyAmt": null,
        "cusId": "2119734739",
        "isMicroDept": "Y",
        "loanType": "01",
        "serno": "XD202106080000146",
        "teamType": null
      },
      {
        "applyAmt": null,
        "cusId": "2119733317",
        "isMicroDept": "Y",
        "loanType": "01",
        "serno": "XD202106100000001",
        "teamType": null
      },
      {
        "applyAmt": null,
        "cusId": "2119733317",
        "isMicroDept": "Y",
        "loanType": "01",
        "serno": "XD202106100000151",
        "teamType": null
      },
      {
        "applyAmt": null,
        "cusId": "2119734739",
        "isMicroDept": "Y",
        "loanType": "01",
        "serno": "XD202106110000003",
        "teamType": null
      },
      {
        "applyAmt": null,
        "cusId": "2119734739",
        "isMicroDept": "Y",
        "loanType": "01",
        "serno": "XD202106110000004",
        "teamType": null
      },
      {
        "applyAmt": null,
        "cusId": "2119734739",
        "isMicroDept": "Y",
        "loanType": "01",
        "serno": "XD202106110000010",
        "teamType": null
      },
      {
        "applyAmt": null,
        "cusId": "2119734739",
        "isMicroDept": "Y",
        "loanType": "01",
        "serno": "XD202106110000011",
        "teamType": null
      },
      {
        "applyAmt": null,
        "cusId": "2119734194",
        "isMicroDept": "Y",
        "loanType": "01",
        "serno": "XD202106150000014",
        "teamType": null
      },
      {
        "applyAmt": null,
        "cusId": "2",
        "isMicroDept": "Y",
        "loanType": "01",
        "serno": "2",
        "teamType": null
      },
      {
        "applyAmt": null,
        "cusId": null,
        "isMicroDept": "Y",
        "loanType": "01",
        "serno": "4333",
        "teamType": null
      },
      {
        "applyAmt": null,
        "cusId": null,
        "isMicroDept": "Y",
        "loanType": "01",
        "serno": "B2E325CC20F34950BD885BD01130BBE4",
        "teamType": null
      },
      {
        "applyAmt": null,
        "cusId": null,
        "isMicroDept": "Y",
        "loanType": "01",
        "serno": "EB73F9C5E53D417B9D9DA69B85BAC658",
        "teamType": null
      },
      {
        "applyAmt": null,
        "cusId": "2119726531",
        "isMicroDept": "Y",
        "loanType": "01",
        "serno": "XD20210527000014311",
        "teamType": null
      },
      {
        "applyAmt": null,
        "cusId": "800000701",
        "isMicroDept": "Y",
        "loanType": "01",
        "serno": "XD20210602100118",
        "teamType": null
      },
      {
        "applyAmt": null,
        "cusId": "2119734739",
        "isMicroDept": "Y",
        "loanType": "01",
        "serno": "XD202106040000110",
        "teamType": null
      },
      {
        "applyAmt": null,
        "cusId": "2023510619",
        "isMicroDept": "Y",
        "loanType": "01",
        "serno": "XD202106040000116",
        "teamType": null
      },
      {
        "applyAmt": null,
        "cusId": "2023510619",
        "isMicroDept": "Y",
        "loanType": "01",
        "serno": "XD202106060000117",
        "teamType": null
      },
      {
        "applyAmt": null,
        "cusId": "2119726531",
        "isMicroDept": "Y",
        "loanType": "01",
        "serno": "XD202106070000001",
        "teamType": null
      },
      {
        "applyAmt": null,
        "cusId": "2119726531",
        "isMicroDept": "Y",
        "loanType": "01",
        "serno": "XD202106070000101",
        "teamType": null
      },
      {
        "applyAmt": null,
        "cusId": "2119726531",
        "isMicroDept": "Y",
        "loanType": "01",
        "serno": "XD202106070000102",
        "teamType": null
      },
      {
        "applyAmt": null,
        "cusId": "2119733317",
        "isMicroDept": "Y",
        "loanType": "01",
        "serno": "XD202106070000118",
        "teamType": null
      },
      {
        "applyAmt": null,
        "cusId": "2119726531",
        "isMicroDept": "Y",
        "loanType": "01",
        "serno": "XD202106070000121",
        "teamType": null
      },
      {
        "applyAmt": null,
        "cusId": "800000701",
        "isMicroDept": "Y",
        "loanType": "01",
        "serno": "XD202106070100118",
        "teamType": null
      },
      {
        "applyAmt": null,
        "cusId": "2119734216",
        "isMicroDept": "Y",
        "loanType": "01",
        "serno": "XD202106080000142",
        "teamType": null
      },
      {
        "applyAmt": null,
        "cusId": "2119734739",
        "isMicroDept": "Y",
        "loanType": "01",
        "serno": "XD202106080000146",
        "teamType": null
      },
      {
        "applyAmt": null,
        "cusId": "2119733317",
        "isMicroDept": "Y",
        "loanType": "01",
        "serno": "XD202106100000001",
        "teamType": null
      },
      {
        "applyAmt": null,
        "cusId": "2119733317",
        "isMicroDept": "Y",
        "loanType": "01",
        "serno": "XD202106100000151",
        "teamType": null
      },
      {
        "applyAmt": null,
        "cusId": "2119734739",
        "isMicroDept": "Y",
        "loanType": "01",
        "serno": "XD202106110000003",
        "teamType": null
      },
      {
        "applyAmt": null,
        "cusId": "2119734739",
        "isMicroDept": "Y",
        "loanType": "01",
        "serno": "XD202106110000004",
        "teamType": null
      },
      {
        "applyAmt": null,
        "cusId": "2119734739",
        "isMicroDept": "Y",
        "loanType": "01",
        "serno": "XD202106110000010",
        "teamType": null
      },
      {
        "applyAmt": null,
        "cusId": "2119734739",
        "isMicroDept": "Y",
        "loanType": "01",
        "serno": "XD202106110000011",
        "teamType": null
      },
      {
        "applyAmt": null,
        "cusId": "2119734194",
        "isMicroDept": "Y",
        "loanType": "01",
        "serno": "XD202106150000014",
        "teamType": null
      }
    ],
    "listCont": [
      {
        "contAmt": 10000,
        "cusId": "800000701",
        "isMicroDept": "1",
        "loanType": "022001",
        "serno": "XD202106070000118111",
        "teamType": null
      },
      {
        "contAmt": 10000,
        "cusId": "800000701",
        "isMicroDept": "1",
        "loanType": "022001",
        "serno": "XD202106070000118111",
        "teamType": null
      },
      {
        "contAmt": 10000,
        "cusId": "800000701",
        "isMicroDept": "1",
        "loanType": "022001",
        "serno": "XD202106070000118111",
        "teamType": null
      },
      {
        "contAmt": 10000,
        "cusId": "800000701",
        "isMicroDept": "1",
        "loanType": "022001",
        "serno": "XD202106070000118111",
        "teamType": null
      },
      {
        "contAmt": 10000,
        "cusId": "800000701",
        "isMicroDept": "1",
        "loanType": "022001",
        "serno": "XD202106070000118111",
        "teamType": "111"
      },
      {
        "contAmt": 10000,
        "cusId": "800000701",
        "isMicroDept": "1",
        "loanType": "022001",
        "serno": "XD202106070000118111",
        "teamType": null
      },
      {
        "contAmt": 10000,
        "cusId": "800000701",
        "isMicroDept": "1",
        "loanType": "022001",
        "serno": "XD202106070000118111",
        "teamType": ""
      },
      {
        "contAmt": 10000,
        "cusId": "800000701",
        "isMicroDept": "1",
        "loanType": "022001",
        "serno": "XD202106070000118111",
        "teamType": ""
      },
      {
        "contAmt": 10000,
        "cusId": "800000701",
        "isMicroDept": "1",
        "loanType": "022001",
        "serno": "XD202106070000118111",
        "teamType": "01"
      },
      {
        "contAmt": 10000,
        "cusId": "800000701",
        "isMicroDept": "1",
        "loanType": "022001",
        "serno": "XD202106070000118111",
        "teamType": "02"
      },
      {
        "contAmt": 10000,
        "cusId": "800000701",
        "isMicroDept": "1",
        "loanType": "022001",
        "serno": "XD202106070000118111",
        "teamType": "01"
      },
      {
        "contAmt": 10000,
        "cusId": "800000701",
        "isMicroDept": "1",
        "loanType": "022001",
        "serno": "XD202106070000118111",
        "teamType": "03"
      },
      {
        "contAmt": 10000,
        "cusId": "875000001",
        "isMicroDept": "1",
        "loanType": "022001",
        "serno": "XD202106070000118111",
        "teamType": null
      },
      {
        "contAmt": 10000,
        "cusId": "875000001",
        "isMicroDept": "1",
        "loanType": "022001",
        "serno": "XD202106070000118111",
        "teamType": null
      },
      {
        "contAmt": 10000,
        "cusId": "875000001",
        "isMicroDept": "1",
        "loanType": "022001",
        "serno": "XD202106070000118111",
        "teamType": null
      },
      {
        "contAmt": 10000,
        "cusId": "875000001",
        "isMicroDept": "1",
        "loanType": "022001",
        "serno": "XD202106070000118111",
        "teamType": null
      },
      {
        "contAmt": 10000,
        "cusId": "875000001",
        "isMicroDept": "1",
        "loanType": "022001",
        "serno": "XD202106070000118111",
        "teamType": "111"
      },
      {
        "contAmt": 10000,
        "cusId": "875000001",
        "isMicroDept": "1",
        "loanType": "022001",
        "serno": "XD202106070000118111",
        "teamType": null
      },
      {
        "contAmt": 10000,
        "cusId": "875000001",
        "isMicroDept": "1",
        "loanType": "022001",
        "serno": "XD202106070000118111",
        "teamType": ""
      },
      {
        "contAmt": 10000,
        "cusId": "875000001",
        "isMicroDept": "1",
        "loanType": "022001",
        "serno": "XD202106070000118111",
        "teamType": ""
      },
      {
        "contAmt": 10000,
        "cusId": "875000001",
        "isMicroDept": "1",
        "loanType": "022001",
        "serno": "XD202106070000118111",
        "teamType": "01"
      },
      {
        "contAmt": 10000,
        "cusId": "875000001",
        "isMicroDept": "1",
        "loanType": "022001",
        "serno": "XD202106070000118111",
        "teamType": "02"
      },
      {
        "contAmt": 10000,
        "cusId": "875000001",
        "isMicroDept": "1",
        "loanType": "022001",
        "serno": "XD202106070000118111",
        "teamType": "01"
      },
      {
        "contAmt": 10000,
        "cusId": "875000001",
        "isMicroDept": "1",
        "loanType": "022001",
        "serno": "XD202106070000118111",
        "teamType": "03"
      }
    ],
    "listLmt": [],
    "listLoan": [
      {
        "billBal": 0,
        "cusId": "800000701",
        "isMicroDept": "N",
        "loanType": null,
        "managerId": "20990517",
        "managerName": "詹煜彪",
        "orgName": "张家港市农村商业银行全行",
        "orgNo": "000000",
        "serno": "XD202105110000137",
        "teamType": null
      },
      {
        "billBal": 0,
        "cusId": "875000001",
        "isMicroDept": "N",
        "loanType": null,
        "managerId": "20990517",
        "managerName": "詹煜彪",
        "orgName": "张家港市农村商业银行全行",
        "orgNo": "000000",
        "serno": "XD202106070000118111",
        "teamType": null
      }
    ]
  },
  "datasq": "XDG2021061500000083222",
  "erorcd": "0000",
  "erortx": "交易成功"
}