{
  "code": "0",
  "total": 0,
  "message": "交易成功",
  "level": null,
  "data": {
    "erorcd": "0000",
    "erortx": "查询成功",
    "pathss": "http://10.28.122.198/ecm-imagevw/show/file.flv?url=group2/M00/00/05/Chx6zWDKuZqEaNbMAAAAANGYJKs414.jpg#imageName#天优机械利润表19.12.jpg",
    "rptem1": "",
    "rptem2": "",
    "rptem3": "",
    "rptem4": ""
  },
  "i18nData": null,
  "extData": null,
  "erorcd": "0000",
  "erortx": "交易成功"
}