{
  "brchno": "",
  "ipaddr": "10.87.2.44",
  "servtp": "FLS",
  "data": {
    "update_time": "2021/06/17",
    "list": [
      {
        "upval": 0.06129,
        "lowerval": 0,
        "dutyno": 1002
      },
      {
        "upval": 0.14106,
        "lowerval": 0.06129,
        "dutyno": 1003
      }
    ],
    "custtype": "010"
  },
  "servsq": "FLS202106173302088013",
  "userid": "",
  "servdt": 20210617,
  "mac": "",
  "waibclma": "XDSX0025",
  "servti": 103036,
  "datasq": "t00904337"
}
