{
  "brchno": "009801",
  "datasq": "GAP20210828881191422505787392",
  "fqxtbios": "GAP",
  "prcscd": "hvpsmr",
  "servdt": "20210828",
  "servsq": "GAP20210828881191422505787392",
  "servti": "150006",
  "servtp": "GAP",
  "userid": "78012181",
  "xitongbs": "GAP",
  "billtp": "1",
  "crcycd": "01",
  "dealcd": "hvpsmr",
  "drawtp": "0",
  "flagtp": "1",
  "functp": "05",
  "handch": "0.00",
  "hvflag": "hvtran",
  "mesgtp": "0",
  "opertp": "A100",
  "opertr": "02102",
  "postch": "0.00",
  "priotg": "NORM",
  "pscrtx": "",
  "pyeeac": "6231320000002360392",
  "pyeena": "邓小存",
  "pyerac": "62312301007457091",
  "pyerna": "黄蝶",
  "rdcode": "314305206650",
  "rdname": "昆山农村商业银行",
  "subprc": "hvpsmr",
  "systdt": "20210828",
  "tranam": "10.00",
  "trantp": "TR"
}