{
  "data": {
    "contList": [
      {
        "assureMeans": "10",
        "bailAcctNo": "",
        "bailIntMode": "",
        "bailRate": 0,
        "chrgRate": 0,
        "cnContNo": "222",
        "contAmt": 22,
        "contEndDate": "",
        "contNo": "22",
        "contStartDate": "",
        "contType": "2",
        "drwrAcctName": "",
        "drwrAcctNo": "",
        "managerId": "",
        "managerName": null
      }
    ]
  },
  "datasq": "XDG2021050600000000399",
  "erorcd": "0000",
  "erortx": "交易成功"
}