{
  "servtp": "1",
  "userid": "1",
  "brchno": "1",
  "datasq": "SKKQQQTA132",
  "servsq": "1",
  "servdt": "1",
  "servti": "1",
  "ipaddr": "1",
  "mac": "1",
  "waibclma": "1",
  "djiebhao": "1",
  "data": {
    "actOperAddr": "2",
    "certNo": "A2",
    "chnlSuggestLmt": "2",
    "coopYearLmt": "2",
    "curtBreedingScale": "2",
    "cusCdtEvlu": "2",
    "cusName": "2",
    "detailTradeCode": "2",
    "detailTradeName": "2",
    "indivEdt": "2",
    "indivMarSt": "2",
    "isAgri": "2",
    "isHavingChild": "2",
    "isOperNormal": "2",
    "mobile": "2",
    "operYear": "2",
    "profitYear": "2",
    "recomMemo": "2",
    "recomOrgName": "2",
    "recomTime": "2",
    "saleAmtYear": "2",
    "sex": "1",
    "sideIndgtChnl": "1",
    "sideIndgtMemo": "1",
    "sideIndgtPhone": "1",
    "spouseCertNo": "1",
    "spouseMobile": "1",
    "spouseName": "1",
    "supTradeCode": "1",
    "supTradeName": "1",
    "tranAmtYear": "1",
    "urgentLinkmanName": "1",
    "urgentLinkmanPhone": "1"
  }
}

