{
  "huandzms": "",
  "yingshfy": "",
  "ysyjlixi": "0",
  "zhjnzlei": "",
  "rzzdkouk": "",
  "kehuhaoo": "2020375621",
  "ysyjfaxi": "0",
  "zhjhaoma": "",
  "huankzhh": "62233201004763507",
  "jiaoymma": "",
  "yingshfj": "",
  "yuqibjin": "0",
  "zjinjizh": "",
  "yshofaxi": "0",
  "mimazlei": "",
  "pingzhzl": "",
  "daikczbz": "2",
  "daizbjin": "0",
  "dzhibjin": "0",
  "cshofaxi": "0",
  "yanmjine": "",
  "csyjlixi": "0",
  "pngzxhao": "",
  "csyjfaxi": "0",
  "zhchbjin": "3000",
  "kehuzwmc": "马翔亚",
  "csqianxi": "0",
  "fuxiiiii": "0",
  "zdhkjine": "3000",
  "zhfutojn": "",
  "jzhdkbzh": "",
  "ysqianxi": "0",
  "yingjifx": "0",
  "kehuzhlx": "",
  "prcsna": "贷款特殊归还",
  "dkjiejuh": "016700130415026",
  "sfqzjieq": "",
  "zijnlaiy": "1",
  "hkzhhzxh": "00001",
  "hkjinelb": "2",
  "daikghfs": "01",
  "pingzhma": ""
}