{
  "brchno": "1",
  "data": {
    "acctNo": "2",
    "seq": "PVP202105200000151"
  },
  "datasq": "111",
  "ipaddr": "5",
  "mac": "6",
  "servdt": "7",
  "servsq": "8",
  "servti": "9",
  "servtp": "10",
  "userid": "11",
  "waibclma": "12"
}