{
  "data": {
    "bailAcct": "123",
    "bailAcctNo": "2022-06-08",
    "bailAmt": 1,
    "bailPerc": "12300.000000",
    "chrg": 0,
    "chrgRate": 0,
    "drftTotlQnt": 123,
    "endDate": "1.000000",
    "grtType": "1.000000",
    "isseAmt": 100,
    "isseDate": "2021-05-20",
    "orgNo": "000000",
    "seq": "PVP202105200000151"
  },
  "datasq": "XDG2021061600000084977",
  "erorcd": "0000",
  "erortx": "交易成功"
}