{
  "code": "0",
  "total": 0,
  "message": "查询成功",
  "level": null,
  "data": {
    "discribe": "消费类融资余额：取个人住房贷款、个人商用房贷款、个人汽车消费贷款、其他消费贷款的余额之和",
    "result": "{\"VALUE\":null}",
    "ruleCode": "R001",
    "servsq": null
  },
  "i18nData": null,
  "extData": null
}