{
  "code": "9999",
  "total": 0,
  "message": "[CBS]00000000000000001154[0423]输入要素[年/月利率标识]不合法, 要素[年/月利率标识-nyuelilv]值[1]未在字典[BaseEnumType.E_NYUELILV]中定义[新核心系统]",
  "level": null,
  "data": {
    "chanpmch": "",
    "dkjiejuh": "",
    "dkzhangh": "",
    "hetongbh": "",
    "huankfsh": "",
    "huobdhao": "",
    "jiaoyils": "8001042200001",
    "jiaoyirq": "20210512",
    "jiejuuje": null,
    "kehuhaoo": "",
    "kehuzwmc": ""
  },
  "i18nData": null,
  "extData": null
}