{
  "code": "0000",
  "total": 0,
  "message": "交易成功!",
  "level": null,
  "data": {
    "data": null,
    "erorcd": null,
    "erortx": null
  },
  "i18nData": null,
  "extData": null,
  "erorcd": "0000",
  "erortx": "交易成功!"
}