{
  "brchno": "1",
  "data": {
    "indgtSerno":"CRE2021051500000316"
  },
  "datasq": "sqt65",
  "ipaddr": "5",
  "mac": "6",
  "servdt": "7",
  "servsq": "8",
  "servti": "9",
  "servtp": "10",
  "userid": "11",
  "waibclma": "12"
}