{
  "code": "9999",
  "total": 0,
  "message": "根据授信合同号:【JKHT20200161017】未查询到授信合同信息，请核实！[对公智能风控系统]",
  "level": null,
  "data": {
    "OLS_DATE": null,
    "OLS_TRAN_NO": null
  },
  "i18nData": null,
  "extData": null,
  "erorcd": "9999",
  "erortx": "根据授信合同号:【JKHT20200161017】未查询到授信合同信息，请核实！[对公智能风控系统]"
}