[
  {
    "data": {
      "opFlag": "S",
      "opMsg": "成功"
    },
    "datasq": "XDG2021061900000090794",
    "erorcd": "0000",
    "erortx": "交易成功"
  },
  {
    "data": {
      "opFlag": "S",
      "opMsg": "成功"
    },
    "datasq": "XDG2021061900000090794",
    "erorcd": "0000",
    "erortx": "交易成功"
  },
  {
    "data": {
      "opFlag": "S",
      "opMsg": "成功"
    },
    "datasq": "XDG2021061900000090828",
    "erorcd": "0000",
    "erortx": "交易成功"
  }
]